<svg xmlns="http://www.w3.org/2000/svg" viewBox="0 0 418 92">
  <defs>
    <style>
      .cls-1 {
        fill: none;
      }

      .cls-2 {
        fill: #fff;
      }
    </style>
  </defs>
  <title>po_white</title>
  <g id="bg">
    <rect class="cls-1" width="418" height="92"/>
  </g>
  <g id="branco">
    <g>
      <path d="M100.145 16.16H110.65C113.143 16.16 115.013 16.6367 116.26 17.59C117.543 18.5067 118.387 19.8817 118.79 21.715C119.23 23.5117 119.45 25.9867 119.45 29.14C119.45 32.1467 119.248 34.5667 118.845 36.4C118.478 38.1967 117.653 39.6083 116.37 40.635C115.087 41.6617 113.18 42.175 110.65 42.175H107.68V54H100.145V16.16ZM109.33 35.355C110.137 35.355 110.705 35.2267 111.035 34.97C111.365 34.7133 111.585 34.1817 111.695 33.375C111.842 32.5317 111.915 31.12 111.915 29.14C111.915 27.1967 111.86 25.8217 111.75 25.015C111.64 24.2083 111.402 23.6767 111.035 23.42C110.705 23.1633 110.137 23.035 109.33 23.035H107.68V35.355H109.33ZM134.976 54L132.116 41.075H129.916V54H122.381V16.16H133.051C135.545 16.16 137.415 16.6183 138.661 17.535C139.945 18.415 140.806 19.735 141.246 21.495C141.686 23.2183 141.906 25.5833 141.906 28.59C141.906 31.4133 141.705 33.6867 141.301 35.41C140.898 37.1333 140.11 38.4717 138.936 39.425L142.786 54H134.976ZM131.786 34.42C132.593 34.42 133.161 34.31 133.491 34.09C133.821 33.8333 134.041 33.3383 134.151 32.605C134.261 31.835 134.316 30.5333 134.316 28.7C134.316 26.9033 134.261 25.6383 134.151 24.905C134.041 24.135 133.821 23.64 133.491 23.42C133.161 23.1633 132.593 23.035 131.786 23.035H129.916V34.42H131.786ZM145.477 54V16.16H160.657V23.035H153.012V31.45H159.722V38.325H153.012V47.125H160.657V54H145.477ZM167.741 54L162.626 16.16H170.216L173.351 46.19H173.901L176.816 16.16H184.296L179.181 54H167.741ZM186.942 54V16.16H194.532V54H186.942ZM198.812 16.16H207.997C211.26 16.16 213.57 16.7283 214.927 17.865C216.32 18.965 217.182 20.7067 217.512 23.09C217.842 25.4733 218.007 29.47 218.007 35.08C218.007 40.69 217.842 44.6867 217.512 47.07C217.182 49.4533 216.32 51.2133 214.927 52.35C213.57 53.45 211.26 54 207.997 54H198.812V16.16ZM207.997 47.125C208.877 47.125 209.464 46.9417 209.757 46.575C210.087 46.2083 210.289 45.255 210.362 43.715C210.472 42.175 210.527 39.2967 210.527 35.08C210.527 30.8633 210.472 27.985 210.362 26.445C210.289 24.905 210.087 23.9517 209.757 23.585C209.464 23.2183 208.877 23.035 207.997 23.035H206.292V47.125H207.997ZM221.693 54V16.16H236.873V23.035H229.228V31.45H235.938V38.325H229.228V47.125H236.873V54H221.693ZM222.078 12.75V12.31L225.763 5.875H232.803L236.543 12.31V12.75H231.648L229.283 9.285L226.973 12.75H222.078ZM253.747 54L247.862 35.025H247.642V54H240.492V16.16H247.477L252.867 33.32H253.142V16.16H260.347V54H253.747ZM279.127 53.45C278.503 53.7433 277.697 53.9817 276.707 54.165C275.753 54.3483 274.837 54.44 273.957 54.44C271.023 54.44 268.86 53.8533 267.467 52.68C266.073 51.5067 265.157 49.6183 264.717 47.015C264.277 44.375 264.057 40.3967 264.057 35.08C264.057 29.8 264.295 25.84 264.772 23.2C265.248 20.56 266.165 18.6533 267.522 17.48C268.915 16.3067 271.06 15.72 273.957 15.72C274.947 15.72 275.918 15.8117 276.872 15.995C277.862 16.1417 278.577 16.325 279.017 16.545V22.87C277.66 22.6867 276.432 22.595 275.332 22.595C274.048 22.595 273.168 22.8333 272.692 23.31C272.252 23.7867 271.958 24.8133 271.812 26.39C271.702 27.93 271.647 30.8267 271.647 35.08C271.647 39.3333 271.702 42.2483 271.812 43.825C271.958 45.365 272.252 46.3733 272.692 46.85C273.168 47.3267 274.048 47.565 275.332 47.565C276.762 47.565 278.027 47.4733 279.127 47.29V53.45ZM282.44 54V16.16H290.03V54H282.44ZM307.565 54L306.63 46.465H300.965L300.03 54H292.495L298.16 16.16H309.545L315.21 54H307.565ZM303.99 23.585H303.605L301.68 39.81H305.915L303.99 23.585ZM325.624 54V16.16H333.214V54H325.624ZM337.494 16.16H346.679C349.942 16.16 352.252 16.7283 353.609 17.865C355.002 18.965 355.864 20.7067 356.194 23.09C356.524 25.4733 356.689 29.47 356.689 35.08C356.689 40.69 356.524 44.6867 356.194 47.07C355.864 49.4533 355.002 51.2133 353.609 52.35C352.252 53.45 349.942 54 346.679 54H337.494V16.16ZM346.679 47.125C347.559 47.125 348.145 46.9417 348.439 46.575C348.769 46.2083 348.97 45.255 349.044 43.715C349.154 42.175 349.209 39.2967 349.209 35.08C349.209 30.8633 349.154 27.985 349.044 26.445C348.97 24.905 348.769 23.9517 348.439 23.585C348.145 23.2183 347.559 23.035 346.679 23.035H344.974V47.125H346.679ZM360.374 54V16.16H375.554V23.035H367.909V31.45H374.619V38.325H367.909V47.125H375.554V54H360.374ZM392.428 54L391.493 46.465H385.828L384.893 54H377.358L383.023 16.16H394.408L400.073 54H392.428ZM388.853 23.585H388.468L386.543 39.81H390.778L388.853 23.585ZM402.538 54V16.16H410.073V47.015H417.003V54H402.538Z" fill="#F0F0F0"/>
      <path fill-rule="evenodd" clip-rule="evenodd" d="M33.4183 0.517942C32.8241 0.178526 32.1516 0 31.4673 0C30.783 0 30.1106 0.178526 29.5164 0.517942L1.98244 16.2516C1.22986 16.6821 0.640624 17.3493 0.306336 18.1493C-0.0279521 18.9492 -0.0885546 19.8373 0.133952 20.6753C0.356458 21.5132 0.849604 22.2542 1.53671 22.783C2.22382 23.3118 3.06639 23.5987 3.93342 23.5992V51.1332C2.89021 51.1332 1.88973 51.5476 1.15207 52.2852C0.414412 53.0229 0 54.0234 0 55.0666C0 56.1098 0.414412 57.1103 1.15207 57.8479C1.88973 58.5856 2.89021 59 3.93342 59H59.0013C60.0445 59 61.045 58.5856 61.7826 57.8479C62.5203 57.1103 62.9347 56.1098 62.9347 55.0666C62.9347 54.0234 62.5203 53.0229 61.7826 52.2852C61.045 51.5476 60.0445 51.1332 59.0013 51.1332V23.5992C59.8683 23.5987 60.7109 23.3118 61.398 22.783C62.0851 22.2542 62.5782 21.5132 62.8007 20.6753C63.0232 19.8373 62.9626 18.9492 62.6283 18.1493C62.2941 17.3493 61.7048 16.6821 60.9522 16.2516L33.4183 0.517942V0.517942ZM15.7337 27.5327C14.6905 27.5327 13.69 27.9471 12.9523 28.6847C12.2147 29.4224 11.8003 30.4229 11.8003 31.4661V43.2663C11.8003 44.3095 12.2147 45.31 12.9523 46.0477C13.69 46.7853 14.6905 47.1997 15.7337 47.1997C16.7769 47.1997 17.7774 46.7853 18.515 46.0477C19.2527 45.31 19.6671 44.3095 19.6671 43.2663V31.4661C19.6671 30.4229 19.2527 29.4224 18.515 28.6847C17.7774 27.9471 16.7769 27.5327 15.7337 27.5327ZM27.5339 31.4661C27.5339 30.4229 27.9483 29.4224 28.686 28.6847C29.4237 27.9471 30.4241 27.5327 31.4673 27.5327C32.5105 27.5327 33.511 27.9471 34.2487 28.6847C34.9863 29.4224 35.4008 30.4229 35.4008 31.4661V43.2663C35.4008 44.3095 34.9863 45.31 34.2487 46.0477C33.511 46.7853 32.5105 47.1997 31.4673 47.1997C30.4241 47.1997 29.4237 46.7853 28.686 46.0477C27.9483 45.31 27.5339 44.3095 27.5339 43.2663V31.4661ZM47.201 27.5327C46.1578 27.5327 45.1573 27.9471 44.4197 28.6847C43.682 29.4224 43.2676 30.4229 43.2676 31.4661V43.2663C43.2676 44.3095 43.682 45.31 44.4197 46.0477C45.1573 46.7853 46.1578 47.1997 47.201 47.1997C48.2442 47.1997 49.2447 46.7853 49.9824 46.0477C50.72 45.31 51.1344 44.3095 51.1344 43.2663V31.4661C51.1344 30.4229 50.72 29.4224 49.9824 28.6847C49.2447 27.9471 48.2442 27.5327 47.201 27.5327Z" fill="#F0F0F0"/>
      <rect width="1" height="38" transform="matrix(-1 0 0 1 82 16)" fill="#F0F0F0"/>
      <path d="M50.3156 90.16C49.769 90.16 49.3156 90.0533 48.9556 89.84C48.5956 89.6133 48.3423 89.1867 48.1956 88.56H48.0956L48.0156 90H47.1156V75.14H48.1756V81.08H48.2756C48.409 80.5733 48.6356 80.2067 48.9556 79.98C49.289 79.7533 49.7423 79.64 50.3156 79.64C51.049 79.64 51.5956 79.7867 51.9556 80.08C52.3156 80.3733 52.5623 80.8867 52.6956 81.62C52.829 82.34 52.8956 83.4333 52.8956 84.9C52.8956 86.38 52.8223 87.4867 52.6756 88.22C52.5423 88.94 52.2956 89.4467 51.9356 89.74C51.589 90.02 51.049 90.16 50.3156 90.16ZM49.9956 89.2C50.569 89.2 50.9756 89.1067 51.2156 88.92C51.4556 88.72 51.6156 88.3333 51.6956 87.76C51.789 87.1867 51.8356 86.2333 51.8356 84.9C51.8356 83.5667 51.789 82.6133 51.6956 82.04C51.6156 81.4667 51.4556 81.0867 51.2156 80.9C50.9756 80.7 50.569 80.6 49.9956 80.6C49.529 80.6 49.1623 80.7067 48.8956 80.92C48.6423 81.1333 48.469 81.48 48.3756 81.96C48.2423 82.6267 48.1756 83.6067 48.1756 84.9C48.1756 85.58 48.1823 86.14 48.1956 86.58C48.2223 87.02 48.2756 87.4267 48.3556 87.8C48.449 88.2933 48.629 88.6533 48.8956 88.88C49.1623 89.0933 49.529 89.2 49.9956 89.2ZM63.1909 85.24H58.5909C58.5909 86.4267 58.6309 87.2867 58.7109 87.82C58.8043 88.34 58.9976 88.7067 59.2909 88.92C59.5843 89.12 60.0643 89.22 60.7309 89.22C61.0643 89.22 61.4443 89.2 61.8709 89.16C62.3109 89.1067 62.6776 89.0467 62.9709 88.98V89.9C62.7043 89.9667 62.3443 90.0267 61.8909 90.08C61.4376 90.1333 60.9976 90.16 60.5709 90.16C59.6643 90.16 58.9976 90.0067 58.5709 89.7C58.1576 89.3933 57.8776 88.8867 57.7309 88.18C57.5976 87.4733 57.5309 86.3867 57.5309 84.92C57.5309 83.4267 57.5843 82.34 57.6909 81.66C57.7976 80.9667 58.0576 80.46 58.4709 80.14C58.8976 79.8067 59.5776 79.64 60.5109 79.64C61.3643 79.64 61.9709 79.7933 62.3309 80.1C62.7043 80.4067 62.9376 80.9 63.0309 81.58C63.1376 82.26 63.1909 83.36 63.1909 84.88V85.24ZM60.4909 80.58C59.9043 80.58 59.4776 80.6667 59.2109 80.84C58.9576 81.0133 58.7909 81.3533 58.7109 81.86C58.6309 82.3667 58.5909 83.2133 58.5909 84.4H62.1709V84.04C62.1709 82.9867 62.1243 82.22 62.0309 81.74C61.9376 81.26 61.7776 80.9467 61.5509 80.8C61.3243 80.6533 60.9709 80.58 60.4909 80.58ZM72.6556 83.84C72.6556 82.8667 72.6156 82.16 72.5356 81.72C72.4556 81.2667 72.3023 80.9667 72.0756 80.82C71.849 80.6733 71.489 80.6 70.9956 80.6C70.4223 80.6 70.0023 80.7667 69.7356 81.1C69.4823 81.42 69.3223 81.8467 69.2556 82.38C69.2023 82.9133 69.1756 83.7067 69.1756 84.76V90H68.1156V79.8H69.0156L69.0956 81.24H69.1956C69.3156 80.7467 69.5423 80.36 69.8756 80.08C70.2223 79.7867 70.729 79.64 71.3956 79.64C72.0623 79.64 72.5556 79.7667 72.8756 80.02C73.209 80.26 73.429 80.6467 73.5356 81.18C73.6556 81.7133 73.7156 82.4867 73.7156 83.5V90H72.6556V83.84ZM84.2105 85.24H79.6105C79.6105 86.4267 79.6505 87.2867 79.7305 87.82C79.8238 88.34 80.0171 88.7067 80.3105 88.92C80.6038 89.12 81.0838 89.22 81.7505 89.22C82.0838 89.22 82.4638 89.2 82.8905 89.16C83.3305 89.1067 83.6971 89.0467 83.9905 88.98V89.9C83.7238 89.9667 83.3638 90.0267 82.9105 90.08C82.4571 90.1333 82.0171 90.16 81.5905 90.16C80.6838 90.16 80.0171 90.0067 79.5905 89.7C79.1771 89.3933 78.8971 88.8867 78.7505 88.18C78.6171 87.4733 78.5505 86.3867 78.5505 84.92C78.5505 83.4267 78.6038 82.34 78.7105 81.66C78.8171 80.9667 79.0771 80.46 79.4905 80.14C79.9171 79.8067 80.5971 79.64 81.5305 79.64C82.3838 79.64 82.9905 79.7933 83.3505 80.1C83.7238 80.4067 83.9571 80.9 84.0505 81.58C84.1571 82.26 84.2105 83.36 84.2105 84.88V85.24ZM81.5105 80.58C80.9238 80.58 80.4971 80.6667 80.2305 80.84C79.9771 81.0133 79.8105 81.3533 79.7305 81.86C79.6505 82.3667 79.6105 83.2133 79.6105 84.4H83.1905V84.04C83.1905 82.9867 83.1438 82.22 83.0505 81.74C82.9571 81.26 82.7971 80.9467 82.5705 80.8C82.3438 80.6533 81.9905 80.58 81.5105 80.58ZM89.6352 80.74H88.3952V79.8H89.6352V77.86C89.6352 77.0467 89.7218 76.4533 89.8952 76.08C90.0685 75.6933 90.3285 75.44 90.6752 75.32C91.0352 75.2 91.5618 75.14 92.2552 75.14V75.98C91.8152 75.98 91.4885 76.0267 91.2752 76.12C91.0618 76.2 90.9085 76.3533 90.8152 76.58C90.7352 76.8067 90.6952 77.16 90.6952 77.64V79.8H92.2552V80.74H90.6952V90H89.6352V80.74ZM96.7445 90V79.8H97.8045V90H96.7445ZM96.7445 77.94V77.84L97.4045 75.14H98.5245V75.24L97.5245 77.94H96.7445ZM107.326 89.92C107.1 89.9867 106.82 90.04 106.486 90.08C106.153 90.1333 105.84 90.16 105.546 90.16C104.706 90.16 104.086 89.9933 103.686 89.66C103.286 89.3133 103.026 88.7867 102.906 88.08C102.786 87.3733 102.726 86.32 102.726 84.92C102.726 83.48 102.8 82.3933 102.946 81.66C103.106 80.9267 103.38 80.4067 103.766 80.1C104.153 79.7933 104.726 79.64 105.486 79.64C106.14 79.64 106.733 79.7133 107.266 79.86V80.78C106.773 80.6467 106.253 80.58 105.706 80.58C105.146 80.58 104.733 80.6933 104.466 80.92C104.2 81.1467 104.02 81.5533 103.926 82.14C103.833 82.7267 103.786 83.64 103.786 84.88C103.786 86.1733 103.833 87.1133 103.926 87.7C104.02 88.2867 104.2 88.6867 104.466 88.9C104.733 89.1133 105.16 89.22 105.746 89.22C106.013 89.22 106.293 89.2 106.586 89.16C106.88 89.12 107.126 89.0667 107.326 89V89.92ZM111.943 76.6V75.14H113.063V76.6H111.943ZM111.983 90V79.8H113.043V90H111.983ZM120.905 90.16C119.998 90.16 119.338 90.0267 118.925 89.76C118.525 89.48 118.265 88.9933 118.145 88.3C118.025 87.6067 117.965 86.48 117.965 84.92C117.965 83.36 118.025 82.2333 118.145 81.54C118.265 80.8333 118.525 80.34 118.925 80.06C119.338 79.78 119.998 79.64 120.905 79.64C121.811 79.64 122.465 79.78 122.865 80.06C123.265 80.34 123.525 80.8333 123.645 81.54C123.778 82.2333 123.845 83.36 123.845 84.92C123.845 86.4667 123.778 87.5933 123.645 88.3C123.525 88.9933 123.265 89.48 122.865 89.76C122.465 90.0267 121.811 90.16 120.905 90.16ZM120.905 89.22C121.505 89.22 121.931 89.12 122.185 88.92C122.438 88.7067 122.598 88.3267 122.665 87.78C122.745 87.22 122.785 86.2667 122.785 84.92C122.785 83.56 122.745 82.6 122.665 82.04C122.598 81.48 122.438 81.1 122.185 80.9C121.931 80.6867 121.505 80.58 120.905 80.58C120.291 80.58 119.858 80.6867 119.605 80.9C119.351 81.1 119.191 81.48 119.125 82.04C119.058 82.6 119.025 83.56 119.025 84.92C119.025 86.28 119.058 87.2333 119.125 87.78C119.191 88.3267 119.351 88.7067 119.605 88.92C119.858 89.12 120.291 89.22 120.905 89.22ZM130.724 90.16C130.351 90.16 129.951 90.1333 129.524 90.08C129.097 90.04 128.751 89.9867 128.484 89.92V89C128.711 89.0667 129.037 89.12 129.464 89.16C129.891 89.2 130.304 89.22 130.704 89.22C131.344 89.22 131.777 89.06 132.004 88.74C132.244 88.4067 132.364 87.92 132.364 87.28C132.364 86.7333 132.337 86.34 132.284 86.1C132.231 85.8467 132.144 85.68 132.024 85.6C131.904 85.52 131.704 85.46 131.424 85.42L129.704 85.14C129.171 85.0467 128.797 84.8133 128.584 84.44C128.384 84.0533 128.284 83.4333 128.284 82.58C128.284 81.46 128.511 80.6933 128.964 80.28C129.417 79.8533 130.104 79.64 131.024 79.64C131.384 79.64 131.751 79.6667 132.124 79.72C132.511 79.76 132.817 79.82 133.044 79.9V80.82C132.831 80.7533 132.524 80.7 132.124 80.66C131.737 80.6067 131.351 80.58 130.964 80.58C130.431 80.58 130.024 80.7133 129.744 80.98C129.477 81.2467 129.344 81.74 129.344 82.46C129.344 82.9533 129.371 83.3133 129.424 83.54C129.477 83.7667 129.564 83.9267 129.684 84.02C129.804 84.1133 129.991 84.18 130.244 84.22L131.904 84.48C132.291 84.5467 132.584 84.66 132.784 84.82C132.997 84.98 133.151 85.2467 133.244 85.62C133.351 85.9933 133.404 86.5333 133.404 87.24C133.404 88.2933 133.191 89.0467 132.764 89.5C132.351 89.94 131.671 90.16 130.724 90.16ZM149.793 85.24H145.193C145.193 86.4267 145.233 87.2867 145.313 87.82C145.406 88.34 145.599 88.7067 145.893 88.92C146.186 89.12 146.666 89.22 147.333 89.22C147.666 89.22 148.046 89.2 148.473 89.16C148.913 89.1067 149.279 89.0467 149.573 88.98V89.9C149.306 89.9667 148.946 90.0267 148.493 90.08C148.039 90.1333 147.599 90.16 147.173 90.16C146.266 90.16 145.599 90.0067 145.173 89.7C144.759 89.3933 144.479 88.8867 144.333 88.18C144.199 87.4733 144.133 86.3867 144.133 84.92C144.133 83.4267 144.186 82.34 144.293 81.66C144.399 80.9667 144.659 80.46 145.073 80.14C145.499 79.8067 146.179 79.64 147.113 79.64C147.966 79.64 148.573 79.7933 148.933 80.1C149.306 80.4067 149.539 80.9 149.633 81.58C149.739 82.26 149.793 83.36 149.793 84.88V85.24ZM147.093 80.58C146.506 80.58 146.079 80.6667 145.812 80.84C145.559 81.0133 145.393 81.3533 145.313 81.86C145.233 82.3667 145.193 83.2133 145.193 84.4H148.773V84.04C148.773 82.9867 148.726 82.22 148.633 81.74C148.539 81.26 148.379 80.9467 148.153 80.8C147.926 80.6533 147.573 80.58 147.093 80.58ZM160.998 79.8H161.898L161.978 81.72H162.078C162.238 80.92 162.505 80.3733 162.878 80.08C163.265 79.7867 163.772 79.64 164.398 79.64V80.76C163.505 80.76 162.892 81.0867 162.558 81.74C162.225 82.38 162.058 83.42 162.058 84.86V90H160.998V79.8ZM174.046 85.24H169.446C169.446 86.4267 169.486 87.2867 169.566 87.82C169.66 88.34 169.853 88.7067 170.146 88.92C170.44 89.12 170.92 89.22 171.586 89.22C171.92 89.22 172.3 89.2 172.726 89.16C173.166 89.1067 173.533 89.0467 173.826 88.98V89.9C173.56 89.9667 173.2 90.0267 172.746 90.08C172.293 90.1333 171.853 90.16 171.426 90.16C170.52 90.16 169.853 90.0067 169.426 89.7C169.013 89.3933 168.733 88.8867 168.586 88.18C168.453 87.4733 168.386 86.3867 168.386 84.92C168.386 83.4267 168.44 82.34 168.546 81.66C168.653 80.9667 168.913 80.46 169.326 80.14C169.753 79.8067 170.433 79.64 171.366 79.64C172.22 79.64 172.826 79.7933 173.186 80.1C173.56 80.4067 173.793 80.9 173.886 81.58C173.993 82.26 174.046 83.36 174.046 84.88V85.24ZM171.346 80.58C170.76 80.58 170.333 80.6667 170.066 80.84C169.813 81.0133 169.646 81.3533 169.566 81.86C169.486 82.3667 169.446 83.2133 169.446 84.4H173.026V84.04C173.026 82.9867 172.98 82.22 172.886 81.74C172.793 81.26 172.633 80.9467 172.406 80.8C172.18 80.6533 171.826 80.58 171.346 80.58ZM180.516 90L178.016 79.8H179.096L181.076 88.32H181.176L183.116 79.8H184.196L181.696 90H180.516ZM188.591 76.6V75.14H189.711V76.6H188.591ZM188.631 90V79.8H189.691V90H188.631ZM196.853 90.16C196.48 90.16 196.08 90.1333 195.653 90.08C195.226 90.04 194.88 89.9867 194.613 89.92V89C194.84 89.0667 195.166 89.12 195.593 89.16C196.02 89.2 196.433 89.22 196.833 89.22C197.473 89.22 197.906 89.06 198.133 88.74C198.373 88.4067 198.493 87.92 198.493 87.28C198.493 86.7333 198.466 86.34 198.413 86.1C198.36 85.8467 198.273 85.68 198.153 85.6C198.033 85.52 197.833 85.46 197.553 85.42L195.833 85.14C195.3 85.0467 194.926 84.8133 194.713 84.44C194.513 84.0533 194.413 83.4333 194.413 82.58C194.413 81.46 194.64 80.6933 195.093 80.28C195.546 79.8533 196.233 79.64 197.153 79.64C197.513 79.64 197.88 79.6667 198.253 79.72C198.64 79.76 198.946 79.82 199.173 79.9V80.82C198.96 80.7533 198.653 80.7 198.253 80.66C197.866 80.6067 197.48 80.58 197.093 80.58C196.56 80.58 196.153 80.7133 195.873 80.98C195.606 81.2467 195.473 81.74 195.473 82.46C195.473 82.9533 195.5 83.3133 195.553 83.54C195.606 83.7667 195.693 83.9267 195.813 84.02C195.933 84.1133 196.12 84.18 196.373 84.22L198.033 84.48C198.42 84.5467 198.713 84.66 198.913 84.82C199.126 84.98 199.28 85.2467 199.373 85.62C199.48 85.9933 199.533 86.5333 199.533 87.24C199.533 88.2933 199.32 89.0467 198.893 89.5C198.48 89.94 197.8 90.16 196.853 90.16ZM206.92 90.16C206.013 90.16 205.353 90.0267 204.94 89.76C204.54 89.48 204.28 88.9933 204.16 88.3C204.04 87.6067 203.98 86.48 203.98 84.92C203.98 83.36 204.04 82.2333 204.16 81.54C204.28 80.8333 204.54 80.34 204.94 80.06C205.353 79.78 206.013 79.64 206.92 79.64C207.827 79.64 208.48 79.78 208.88 80.06C209.28 80.34 209.54 80.8333 209.66 81.54C209.793 82.2333 209.86 83.36 209.86 84.92C209.86 86.4667 209.793 87.5933 209.66 88.3C209.54 88.9933 209.28 89.48 208.88 89.76C208.48 90.0267 207.827 90.16 206.92 90.16ZM206.92 89.22C207.52 89.22 207.947 89.12 208.2 88.92C208.453 88.7067 208.613 88.3267 208.68 87.78C208.76 87.22 208.8 86.2667 208.8 84.92C208.8 83.56 208.76 82.6 208.68 82.04C208.613 81.48 208.453 81.1 208.2 80.9C207.947 80.6867 207.52 80.58 206.92 80.58C206.307 80.58 205.873 80.6867 205.62 80.9C205.367 81.1 205.207 81.48 205.14 82.04C205.073 82.6 205.04 83.56 205.04 84.92C205.04 86.28 205.073 87.2333 205.14 87.78C205.207 88.3267 205.367 88.7067 205.62 88.92C205.873 89.12 206.307 89.22 206.92 89.22ZM209.3 75.14C209.3 75.9 209.233 76.4333 209.1 76.74C208.967 77.0333 208.687 77.18 208.26 77.18C208.047 77.18 207.84 77.14 207.64 77.06C207.44 76.98 207.173 76.86 206.84 76.7C206.6 76.5533 206.387 76.4467 206.2 76.38C206.027 76.3 205.853 76.26 205.68 76.26C205.52 76.26 205.413 76.34 205.36 76.5C205.32 76.6467 205.3 76.9467 205.3 77.4H204.56C204.56 76.6267 204.627 76.0933 204.76 75.8C204.893 75.5067 205.173 75.36 205.6 75.36C205.827 75.36 206.053 75.4067 206.28 75.5C206.507 75.58 206.773 75.7067 207.08 75.88C207.333 76.0133 207.54 76.1133 207.7 76.18C207.86 76.2467 208.013 76.28 208.16 76.28C208.32 76.28 208.427 76.2 208.48 76.04C208.533 75.8667 208.56 75.5667 208.56 75.14H209.3ZM220.16 85.24H215.56C215.56 86.4267 215.6 87.2867 215.68 87.82C215.773 88.34 215.966 88.7067 216.26 88.92C216.553 89.12 217.033 89.22 217.7 89.22C218.033 89.22 218.413 89.2 218.84 89.16C219.28 89.1067 219.646 89.0467 219.94 88.98V89.9C219.673 89.9667 219.313 90.0267 218.86 90.08C218.406 90.1333 217.966 90.16 217.54 90.16C216.633 90.16 215.966 90.0067 215.54 89.7C215.126 89.3933 214.846 88.8867 214.7 88.18C214.566 87.4733 214.5 86.3867 214.5 84.92C214.5 83.4267 214.553 82.34 214.66 81.66C214.766 80.9667 215.026 80.46 215.44 80.14C215.866 79.8067 216.546 79.64 217.48 79.64C218.333 79.64 218.94 79.7933 219.3 80.1C219.673 80.4067 219.906 80.9 220 81.58C220.106 82.26 220.16 83.36 220.16 84.88V85.24ZM217.46 80.58C216.873 80.58 216.446 80.6667 216.18 80.84C215.926 81.0133 215.76 81.3533 215.68 81.86C215.6 82.3667 215.56 83.2133 215.56 84.4H219.14V84.04C219.14 82.9867 219.093 82.22 219 81.74C218.906 81.26 218.746 80.9467 218.52 80.8C218.293 80.6533 217.94 80.58 217.46 80.58ZM227.044 90.16C226.671 90.16 226.271 90.1333 225.844 90.08C225.418 90.04 225.071 89.9867 224.804 89.92V89C225.031 89.0667 225.358 89.12 225.784 89.16C226.211 89.2 226.624 89.22 227.024 89.22C227.664 89.22 228.098 89.06 228.324 88.74C228.564 88.4067 228.684 87.92 228.684 87.28C228.684 86.7333 228.658 86.34 228.604 86.1C228.551 85.8467 228.464 85.68 228.344 85.6C228.224 85.52 228.024 85.46 227.744 85.42L226.024 85.14C225.491 85.0467 225.118 84.8133 224.904 84.44C224.704 84.0533 224.604 83.4333 224.604 82.58C224.604 81.46 224.831 80.6933 225.284 80.28C225.738 79.8533 226.424 79.64 227.344 79.64C227.704 79.64 228.071 79.6667 228.444 79.72C228.831 79.76 229.138 79.82 229.364 79.9V80.82C229.151 80.7533 228.844 80.7 228.444 80.66C228.058 80.6067 227.671 80.58 227.284 80.58C226.751 80.58 226.344 80.7133 226.064 80.98C225.798 81.2467 225.664 81.74 225.664 82.46C225.664 82.9533 225.691 83.3133 225.744 83.54C225.798 83.7667 225.884 83.9267 226.004 84.02C226.124 84.1133 226.311 84.18 226.564 84.22L228.224 84.48C228.611 84.5467 228.904 84.66 229.104 84.82C229.318 84.98 229.471 85.2467 229.564 85.62C229.671 85.9933 229.724 86.5333 229.724 87.24C229.724 88.2933 229.511 89.0467 229.084 89.5C228.671 89.94 227.991 90.16 227.044 90.16ZM240.733 79.8H241.633L241.713 81.24H241.813C241.959 80.6133 242.213 80.1933 242.573 79.98C242.933 79.7533 243.386 79.64 243.933 79.64C244.666 79.64 245.206 79.7867 245.553 80.08C245.913 80.36 246.159 80.8667 246.293 81.6C246.439 82.32 246.513 83.42 246.513 84.9C246.513 86.3667 246.446 87.4667 246.313 88.2C246.179 88.92 245.933 89.4267 245.573 89.72C245.213 90.0133 244.666 90.16 243.933 90.16C243.359 90.16 242.906 90.0467 242.573 89.82C242.253 89.5933 242.026 89.2267 241.893 88.72H241.793V93.84H240.733V79.8ZM243.613 89.2C244.186 89.2 244.593 89.1067 244.833 88.92C245.073 88.72 245.233 88.3333 245.313 87.76C245.406 87.1867 245.453 86.2333 245.453 84.9C245.453 83.5667 245.406 82.6133 245.313 82.04C245.233 81.4667 245.073 81.0867 244.833 80.9C244.593 80.7 244.186 80.6 243.613 80.6C243.133 80.6 242.759 80.7133 242.493 80.94C242.226 81.1533 242.046 81.52 241.953 82.04C241.846 82.6133 241.793 83.5667 241.793 84.9C241.793 86.26 241.839 87.1533 241.933 87.58C242.053 88.18 242.239 88.6 242.493 88.84C242.759 89.08 243.133 89.2 243.613 89.2ZM251.428 79.8H252.328L252.408 81.72H252.508C252.668 80.92 252.935 80.3733 253.308 80.08C253.695 79.7867 254.201 79.64 254.828 79.64V80.76C253.935 80.76 253.321 81.0867 252.988 81.74C252.655 82.38 252.488 83.42 252.488 84.86V90H251.428V79.8ZM264.476 85.24H259.876C259.876 86.4267 259.916 87.2867 259.996 87.82C260.089 88.34 260.283 88.7067 260.576 88.92C260.869 89.12 261.349 89.22 262.016 89.22C262.349 89.22 262.729 89.2 263.156 89.16C263.596 89.1067 263.963 89.0467 264.256 88.98V89.9C263.989 89.9667 263.629 90.0267 263.176 90.08C262.723 90.1333 262.283 90.16 261.856 90.16C260.949 90.16 260.283 90.0067 259.856 89.7C259.443 89.3933 259.163 88.8867 259.016 88.18C258.883 87.4733 258.816 86.3867 258.816 84.92C258.816 83.4267 258.869 82.34 258.976 81.66C259.083 80.9667 259.343 80.46 259.756 80.14C260.183 79.8067 260.863 79.64 261.796 79.64C262.649 79.64 263.256 79.7933 263.616 80.1C263.989 80.4067 264.223 80.9 264.316 81.58C264.423 82.26 264.476 83.36 264.476 84.88V85.24ZM261.776 80.58C261.189 80.58 260.763 80.6667 260.496 80.84C260.243 81.0133 260.076 81.3533 259.996 81.86C259.916 82.3667 259.876 83.2133 259.876 84.4H263.456V84.04C263.456 82.9867 263.409 82.22 263.316 81.74C263.223 81.26 263.063 80.9467 262.836 80.8C262.609 80.6533 262.256 80.58 261.776 80.58ZM270.945 90L268.445 79.8H269.525L271.505 88.32H271.605L273.545 79.8H274.625L272.125 90H270.945ZM279.021 76.6V75.14H280.141V76.6H279.021ZM279.061 90V79.8H280.121V90H279.061ZM287.643 90.16C286.909 90.16 286.363 90.02 286.003 89.74C285.643 89.4467 285.389 88.9333 285.243 88.2C285.109 87.4667 285.043 86.3667 285.043 84.9C285.043 83.4333 285.109 82.34 285.243 81.62C285.376 80.8867 285.623 80.3733 285.983 80.08C286.356 79.7867 286.909 79.64 287.643 79.64C288.216 79.64 288.663 79.7533 288.983 79.98C289.316 80.2067 289.549 80.5733 289.683 81.08H289.783V75.14H290.843V90H289.923L289.843 88.56H289.743C289.609 89.1867 289.356 89.6133 288.983 89.84C288.623 90.0533 288.176 90.16 287.643 90.16ZM287.943 89.2C288.423 89.2 288.796 89.0933 289.063 88.88C289.329 88.6667 289.509 88.3133 289.603 87.82C289.683 87.4067 289.729 86.9733 289.743 86.52C289.769 86.0533 289.783 85.4333 289.783 84.66C289.783 83.5667 289.729 82.7267 289.623 82.14C289.503 81.58 289.309 81.1867 289.043 80.96C288.776 80.72 288.389 80.6 287.883 80.6C287.336 80.6 286.943 80.7 286.703 80.9C286.476 81.0867 286.316 81.4667 286.223 82.04C286.143 82.6133 286.103 83.5667 286.103 84.9C286.103 86.2333 286.143 87.1867 286.223 87.76C286.316 88.3333 286.483 88.72 286.723 88.92C286.976 89.1067 287.383 89.2 287.943 89.2ZM301.398 85.24H296.798C296.798 86.4267 296.838 87.2867 296.918 87.82C297.011 88.34 297.205 88.7067 297.498 88.92C297.791 89.12 298.271 89.22 298.938 89.22C299.271 89.22 299.651 89.2 300.078 89.16C300.518 89.1067 300.885 89.0467 301.178 88.98V89.9C300.911 89.9667 300.551 90.0267 300.098 90.08C299.645 90.1333 299.205 90.16 298.778 90.16C297.871 90.16 297.205 90.0067 296.778 89.7C296.365 89.3933 296.085 88.8867 295.938 88.18C295.805 87.4733 295.738 86.3867 295.738 84.92C295.738 83.4267 295.791 82.34 295.898 81.66C296.005 80.9667 296.265 80.46 296.678 80.14C297.105 79.8067 297.785 79.64 298.718 79.64C299.571 79.64 300.178 79.7933 300.538 80.1C300.911 80.4067 301.145 80.9 301.238 81.58C301.345 82.26 301.398 83.36 301.398 84.88V85.24ZM298.698 80.58C298.111 80.58 297.685 80.6667 297.418 80.84C297.165 81.0133 296.998 81.3533 296.918 81.86C296.838 82.3667 296.798 83.2133 296.798 84.4H300.378V84.04C300.378 82.9867 300.331 82.22 300.238 81.74C300.145 81.26 299.985 80.9467 299.758 80.8C299.531 80.6533 299.178 80.58 298.698 80.58ZM310.863 83.84C310.863 82.8667 310.823 82.16 310.743 81.72C310.663 81.2667 310.509 80.9667 310.283 80.82C310.056 80.6733 309.696 80.6 309.203 80.6C308.629 80.6 308.209 80.7667 307.943 81.1C307.689 81.42 307.529 81.8467 307.463 82.38C307.409 82.9133 307.383 83.7067 307.383 84.76V90H306.323V79.8H307.223L307.303 81.24H307.403C307.523 80.7467 307.749 80.36 308.083 80.08C308.429 79.7867 308.936 79.64 309.603 79.64C310.269 79.64 310.763 79.7667 311.083 80.02C311.416 80.26 311.636 80.6467 311.743 81.18C311.863 81.7133 311.923 82.4867 311.923 83.5V90H310.863V83.84ZM321.358 89.92C321.131 89.9867 320.851 90.04 320.518 90.08C320.184 90.1333 319.871 90.16 319.578 90.16C318.738 90.16 318.118 89.9933 317.718 89.66C317.318 89.3133 317.058 88.7867 316.938 88.08C316.818 87.3733 316.758 86.32 316.758 84.92C316.758 83.48 316.831 82.3933 316.978 81.66C317.138 80.9267 317.411 80.4067 317.798 80.1C318.184 79.7933 318.758 79.64 319.518 79.64C320.171 79.64 320.764 79.7133 321.298 79.86V80.78C320.804 80.6467 320.284 80.58 319.738 80.58C319.178 80.58 318.764 80.6933 318.498 80.92C318.231 81.1467 318.051 81.5533 317.958 82.14C317.864 82.7267 317.818 83.64 317.818 84.88C317.818 86.1733 317.864 87.1133 317.958 87.7C318.051 88.2867 318.231 88.6867 318.498 88.9C318.764 89.1133 319.191 89.22 319.778 89.22C320.044 89.22 320.324 89.2 320.618 89.16C320.911 89.12 321.158 89.0667 321.358 89V89.92ZM325.974 76.6V75.14H327.094V76.6H325.974ZM326.014 90V79.8H327.074V90H326.014ZM334.116 90.16C333.529 90.16 333.062 90.08 332.716 89.92C332.382 89.7467 332.129 89.4467 331.956 89.02C331.796 88.5933 331.716 87.9867 331.716 87.2C331.716 86.44 331.782 85.8533 331.916 85.44C332.062 85.0133 332.296 84.7133 332.616 84.54C332.936 84.3533 333.396 84.26 333.996 84.26C334.422 84.26 335.189 84.2933 336.296 84.36V83.52C336.296 82.6133 336.242 81.96 336.136 81.56C336.042 81.16 335.862 80.9 335.596 80.78C335.329 80.6467 334.882 80.58 334.256 80.58C333.936 80.58 333.569 80.6067 333.156 80.66C332.756 80.7 332.416 80.7467 332.136 80.8V79.88C332.856 79.72 333.656 79.64 334.536 79.64C335.309 79.64 335.889 79.7467 336.276 79.96C336.676 80.1733 336.956 80.5533 337.116 81.1C337.276 81.6333 337.356 82.42 337.356 83.46V90H336.436L336.356 88.56H336.256C336.122 89.1867 335.862 89.6133 335.476 89.84C335.102 90.0533 334.649 90.16 334.116 90.16ZM334.316 89.2C334.782 89.2 335.156 89.1333 335.436 89C335.729 88.8667 335.936 88.58 336.056 88.14C336.216 87.54 336.296 86.7867 336.296 85.88V85.1H334.216C333.802 85.1 333.496 85.1533 333.296 85.26C333.096 85.3533 332.956 85.5467 332.876 85.84C332.796 86.12 332.756 86.56 332.756 87.16C332.756 87.72 332.796 88.1467 332.876 88.44C332.969 88.72 333.122 88.92 333.336 89.04C333.549 89.1467 333.876 89.2 334.316 89.2ZM334.296 77.94V77.84L334.956 75.14H336.076V75.24L335.076 77.94H334.296ZM342.483 79.8H343.383L343.463 81.72H343.563C343.723 80.92 343.989 80.3733 344.363 80.08C344.749 79.7867 345.256 79.64 345.883 79.64V80.76C344.989 80.76 344.376 81.0867 344.043 81.74C343.709 82.38 343.543 83.42 343.543 84.86V90H342.483V79.8ZM350.208 76.6V75.14H351.328V76.6H350.208ZM350.248 90V79.8H351.308V90H350.248ZM358.35 90.16C357.763 90.16 357.297 90.08 356.95 89.92C356.617 89.7467 356.363 89.4467 356.19 89.02C356.03 88.5933 355.95 87.9867 355.95 87.2C355.95 86.44 356.017 85.8533 356.15 85.44C356.297 85.0133 356.53 84.7133 356.85 84.54C357.17 84.3533 357.63 84.26 358.23 84.26C358.657 84.26 359.423 84.2933 360.53 84.36V83.52C360.53 82.6133 360.477 81.96 360.37 81.56C360.277 81.16 360.097 80.9 359.83 80.78C359.563 80.6467 359.117 80.58 358.49 80.58C358.17 80.58 357.803 80.6067 357.39 80.66C356.99 80.7 356.65 80.7467 356.37 80.8V79.88C357.09 79.72 357.89 79.64 358.77 79.64C359.543 79.64 360.123 79.7467 360.51 79.96C360.91 80.1733 361.19 80.5533 361.35 81.1C361.51 81.6333 361.59 82.42 361.59 83.46V90H360.67L360.59 88.56H360.49C360.357 89.1867 360.097 89.6133 359.71 89.84C359.337 90.0533 358.883 90.16 358.35 90.16ZM358.55 89.2C359.017 89.2 359.39 89.1333 359.67 89C359.963 88.8667 360.17 88.58 360.29 88.14C360.45 87.54 360.53 86.7867 360.53 85.88V85.1H358.45C358.037 85.1 357.73 85.1533 357.53 85.26C357.33 85.3533 357.19 85.5467 357.11 85.84C357.03 86.12 356.99 86.56 356.99 87.16C356.99 87.72 357.03 88.1467 357.11 88.44C357.203 88.72 357.357 88.92 357.57 89.04C357.783 89.1467 358.11 89.2 358.55 89.2ZM368.677 90.16C368.304 90.16 367.904 90.1333 367.477 90.08C367.051 90.04 366.704 89.9867 366.437 89.92V89C366.664 89.0667 366.991 89.12 367.417 89.16C367.844 89.2 368.257 89.22 368.657 89.22C369.297 89.22 369.731 89.06 369.957 88.74C370.197 88.4067 370.317 87.92 370.317 87.28C370.317 86.7333 370.291 86.34 370.237 86.1C370.184 85.8467 370.097 85.68 369.977 85.6C369.857 85.52 369.657 85.46 369.377 85.42L367.657 85.14C367.124 85.0467 366.751 84.8133 366.537 84.44C366.337 84.0533 366.237 83.4333 366.237 82.58C366.237 81.46 366.464 80.6933 366.917 80.28C367.371 79.8533 368.057 79.64 368.977 79.64C369.337 79.64 369.704 79.6667 370.077 79.72C370.464 79.76 370.771 79.82 370.997 79.9V80.82C370.784 80.7533 370.477 80.7 370.077 80.66C369.691 80.6067 369.304 80.58 368.917 80.58C368.384 80.58 367.977 80.7133 367.697 80.98C367.431 81.2467 367.297 81.74 367.297 82.46C367.297 82.9533 367.324 83.3133 367.377 83.54C367.431 83.7667 367.517 83.9267 367.637 84.02C367.757 84.1133 367.944 84.18 368.197 84.22L369.857 84.48C370.244 84.5467 370.537 84.66 370.737 84.82C370.951 84.98 371.104 85.2467 371.197 85.62C371.304 85.9933 371.357 86.5333 371.357 87.24C371.357 88.2933 371.144 89.0467 370.717 89.5C370.304 89.94 369.624 90.16 368.677 90.16Z" fill="#F0F0F0"/>
    </g>
  </g>
</svg>
