<svg width="83" height="64" viewBox="0 0 83 64" fill="none" xmlns="http://www.w3.org/2000/svg">
<path d="M80.0357 5.81818H65.2143V0.727273C65.2143 0.327273 64.8808 0 64.4732 0H59.2857C58.8781 0 58.5446 0.327273 58.5446 0.727273V5.81818H44.8348V0.727273C44.8348 0.327273 44.5013 0 44.0938 0H38.9062C38.4987 0 38.1652 0.327273 38.1652 0.727273V5.81818H24.4554V0.727273C24.4554 0.327273 24.1219 0 23.7143 0H18.5268C18.1192 0 17.7857 0.327273 17.7857 0.727273V5.81818H2.96429C1.32467 5.81818 0 7.11818 0 8.72727V61.0909C0 62.7 1.32467 64 2.96429 64H80.0357C81.6753 64 83 62.7 83 61.0909V8.72727C83 7.11818 81.6753 5.81818 80.0357 5.81818ZM33.3482 48C33.3482 48.4 33.0147 48.7273 32.6071 48.7273H15.5625C15.1549 48.7273 14.8214 48.4 14.8214 48V43.6364C14.8214 43.2364 15.1549 42.9091 15.5625 42.9091H32.6071C33.0147 42.9091 33.3482 43.2364 33.3482 43.6364V48ZM33.3482 35.6364C33.3482 36.0364 33.0147 36.3636 32.6071 36.3636H15.5625C15.1549 36.3636 14.8214 36.0364 14.8214 35.6364V31.2727C14.8214 30.8727 15.1549 30.5455 15.5625 30.5455H32.6071C33.0147 30.5455 33.3482 30.8727 33.3482 31.2727V35.6364ZM68.0396 27.3364L52.755 48.1273C52.6186 48.3131 52.4391 48.4645 52.2313 48.5689C52.0235 48.6733 51.7935 48.7277 51.56 48.7277C51.3266 48.7277 51.0966 48.6733 50.8888 48.5689C50.681 48.4645 50.5015 48.3131 50.3651 48.1273L39.7863 33.7455C39.4343 33.2636 39.7863 32.5909 40.3884 32.5909H45.474C45.9464 32.5909 46.3911 32.8182 46.669 33.1909L51.56 39.8364L61.1662 26.7727C61.4441 26.3909 61.8887 26.1727 62.3612 26.1727H67.4375C68.0396 26.1818 68.3916 26.8545 68.0396 27.3364Z" fill="#FFC2A9"/>
</svg>
