<svg width="369" height="83" viewBox="0 0 369 83" fill="none" xmlns="http://www.w3.org/2000/svg">
<path d="M88.5767 14.2933H97.8682C100.073 14.2933 101.727 14.7149 102.83 15.5581C103.965 16.3689 104.711 17.585 105.068 19.2066C105.457 20.7957 105.652 22.9848 105.652 25.7739C105.652 28.4332 105.473 30.5737 105.117 32.1952C104.792 33.7844 104.063 35.033 102.927 35.941C101.792 36.8491 100.106 37.3031 97.8682 37.3031H95.2412V47.7622H88.5767V14.2933ZM96.7006 31.2709C97.4141 31.2709 97.9168 31.1574 98.2087 30.9304C98.5006 30.7034 98.6952 30.2332 98.7925 29.5197C98.9222 28.7738 98.987 27.5252 98.987 25.7739C98.987 24.055 98.9384 22.8389 98.8411 22.1254C98.7438 21.4119 98.533 20.9416 98.2087 20.7146C97.9168 20.4876 97.4141 20.3741 96.7006 20.3741H95.2412V31.2709H96.7006Z" fill="#20517E"/>
<path d="M119.384 47.7622L116.855 36.3302H114.909V47.7622H108.244V14.2933H117.682C119.887 14.2933 121.541 14.6987 122.644 15.5094C123.779 16.2878 124.541 17.4553 124.93 19.012C125.319 20.5363 125.514 22.6281 125.514 25.2874C125.514 27.7846 125.336 29.7953 124.979 31.3196C124.622 32.8439 123.925 34.0276 122.887 34.8708L126.292 47.7622H119.384ZM116.563 30.444C117.276 30.444 117.779 30.3467 118.071 30.1521C118.363 29.9251 118.557 29.4872 118.655 28.8386C118.752 28.1576 118.801 27.0063 118.801 25.3847C118.801 23.7956 118.752 22.6767 118.655 22.0281C118.557 21.347 118.363 20.9092 118.071 20.7146C117.779 20.4876 117.276 20.3741 116.563 20.3741H114.909V30.444H116.563Z" fill="#20517E"/>
<path d="M128.672 47.7622V14.2933H142.099V20.3741H135.337V27.817H141.272V33.8979H135.337V41.6813H142.099V47.7622H128.672Z" fill="#20517E"/>
<path d="M148.364 47.7622L143.84 14.2933H150.553L153.326 40.8543H153.813L156.391 14.2933H163.007L158.483 47.7622H148.364Z" fill="#20517E"/>
<path d="M165.347 47.7622V14.2933H172.06V47.7622H165.347Z" fill="#20517E"/>
<path d="M175.846 14.2933H183.97C186.856 14.2933 188.9 14.796 190.1 15.8013C191.332 16.7742 192.094 18.3147 192.386 20.4227C192.678 22.5308 192.824 26.0658 192.824 31.0277C192.824 35.9897 192.678 39.5247 192.386 41.6327C192.094 43.7407 191.332 45.2974 190.1 46.3028C188.9 47.2757 186.856 47.7622 183.97 47.7622H175.846V14.2933ZM183.97 41.6813C184.748 41.6813 185.267 41.5192 185.527 41.1949C185.819 40.8705 185.997 40.0273 186.062 38.6652C186.159 37.3031 186.208 34.7573 186.208 31.0277C186.208 27.2981 186.159 24.7523 186.062 23.3902C185.997 22.0281 185.819 21.1849 185.527 20.8606C185.267 20.5363 184.748 20.3741 183.97 20.3741H182.462V41.6813H183.97Z" fill="#20517E"/>
<path d="M196.084 47.7622V14.2933H209.51V20.3741H202.748V27.817H208.683V33.8979H202.748V41.6813H209.51V47.7622H196.084ZM196.424 11.2772V10.888L199.684 5.19635H205.91L209.218 10.888V11.2772H204.889L202.797 8.21244L200.754 11.2772H196.424Z" fill="#20517E"/>
<path d="M224.435 47.7622L219.23 30.9791H219.035V47.7622H212.711V14.2933H218.889L223.657 29.471H223.9V14.2933H230.272V47.7622H224.435Z" fill="#20517E"/>
<path d="M246.883 47.2757C246.332 47.5351 245.618 47.7459 244.743 47.9081C243.899 48.0703 243.089 48.1513 242.31 48.1513C239.716 48.1513 237.802 47.6324 236.57 46.5946C235.338 45.5568 234.527 43.8866 234.138 41.584C233.748 39.249 233.554 35.7302 233.554 31.0277C233.554 26.3576 233.765 22.8551 234.186 20.52C234.608 18.185 235.419 16.4986 236.619 15.4608C237.851 14.423 239.748 13.9041 242.31 13.9041C243.186 13.9041 244.045 13.9852 244.889 14.1473C245.764 14.2771 246.397 14.4392 246.786 14.6338V20.2282C245.586 20.066 244.499 19.9849 243.526 19.9849C242.391 19.9849 241.613 20.1957 241.191 20.6173C240.802 21.0389 240.543 21.947 240.413 23.3415C240.316 24.7036 240.267 27.2657 240.267 31.0277C240.267 34.7897 240.316 37.368 240.413 38.7625C240.543 40.1246 240.802 41.0165 241.191 41.4381C241.613 41.8597 242.391 42.0705 243.526 42.0705C244.791 42.0705 245.91 41.9894 246.883 41.8273V47.2757Z" fill="#20517E"/>
<path d="M249.814 47.7622V14.2933H256.527V47.7622H249.814Z" fill="#20517E"/>
<path d="M272.036 47.7622L271.209 41.0976H266.199L265.372 47.7622H258.707L263.718 14.2933H273.788L278.798 47.7622H272.036ZM268.874 20.8606H268.534L266.831 35.2113H270.577L268.874 20.8606Z" fill="#20517E"/>
<path d="M288.009 47.7622V14.2933H294.722V47.7622H288.009Z" fill="#20517E"/>
<path d="M298.508 14.2933H306.632C309.518 14.2933 311.561 14.796 312.761 15.8013C313.994 16.7742 314.756 18.3147 315.048 20.4227C315.339 22.5308 315.485 26.0658 315.485 31.0277C315.485 35.9897 315.339 39.5247 315.048 41.6327C314.756 43.7407 313.994 45.2974 312.761 46.3028C311.561 47.2757 309.518 47.7622 306.632 47.7622H298.508V14.2933ZM306.632 41.6813C307.41 41.6813 307.929 41.5192 308.188 41.1949C308.48 40.8705 308.659 40.0273 308.724 38.6652C308.821 37.3031 308.869 34.7573 308.869 31.0277C308.869 27.2981 308.821 24.7523 308.724 23.3902C308.659 22.0281 308.48 21.1849 308.188 20.8606C307.929 20.5363 307.41 20.3741 306.632 20.3741H305.124V41.6813H306.632Z" fill="#20517E"/>
<path d="M318.746 47.7622V14.2933H332.172V20.3741H325.41V27.817H331.345V33.8979H325.41V41.6813H332.172V47.7622H318.746Z" fill="#20517E"/>
<path d="M347.097 47.7622L346.27 41.0976H341.259L340.432 47.7622H333.767L338.778 14.2933H348.848L353.858 47.7622H347.097ZM343.935 20.8606H343.594L341.891 35.2113H345.637L343.935 20.8606Z" fill="#20517E"/>
<path d="M356.038 47.7622V14.2933H362.703V41.584H368.832V47.7622H356.038Z" fill="#20517E"/>
<path fill-rule="evenodd" clip-rule="evenodd" d="M29.558 0.458112C29.0324 0.157903 28.4376 0 27.8324 0C27.2271 0 26.6323 0.157903 26.1068 0.458112L1.75344 14.3743C1.0878 14.7551 0.566622 15.3452 0.270949 16.0527C-0.0247232 16.7603 -0.0783252 17.5458 0.118478 18.2869C0.315281 19.0281 0.751461 19.6835 1.3592 20.1512C1.96694 20.6189 2.71218 20.8727 3.47905 20.8732V45.2265C2.55635 45.2265 1.67144 45.593 1.01899 46.2455C0.366541 46.8979 0 47.7828 0 48.7055C0 49.6282 0.366541 50.5131 1.01899 51.1656C1.67144 51.818 2.55635 52.1846 3.47905 52.1846H52.1857C53.1084 52.1846 53.9933 51.818 54.6457 51.1656C55.2982 50.5131 55.6647 49.6282 55.6647 48.7055C55.6647 47.7828 55.2982 46.8979 54.6457 46.2455C53.9933 45.593 53.1084 45.2265 52.1857 45.2265V20.8732C52.9526 20.8727 53.6978 20.6189 54.3055 20.1512C54.9133 19.6835 55.3495 19.0281 55.5463 18.2869C55.7431 17.5458 55.6895 16.7603 55.3938 16.0527C55.0981 15.3452 54.5769 14.7551 53.9113 14.3743L29.558 0.458112ZM13.9162 24.3522C12.9935 24.3522 12.1086 24.7187 11.4561 25.3712C10.8037 26.0236 10.4371 26.9085 10.4371 27.8312V38.2684C10.4371 39.1911 10.8037 40.076 11.4561 40.7284C12.1086 41.3809 12.9935 41.7474 13.9162 41.7474C14.8389 41.7474 15.7238 41.3809 16.3762 40.7284C17.0287 40.076 17.3952 39.1911 17.3952 38.2684V27.8312C17.3952 26.9085 17.0287 26.0236 16.3762 25.3712C15.7238 24.7187 14.8389 24.3522 13.9162 24.3522ZM24.3533 27.8312C24.3533 26.9085 24.7199 26.0236 25.3723 25.3712C26.0248 24.7187 26.9097 24.3522 27.8324 24.3522C28.7551 24.3522 29.64 24.7187 30.2924 25.3712C30.9449 26.0236 31.3114 26.9085 31.3114 27.8312V38.2684C31.3114 39.1911 30.9449 40.076 30.2924 40.7284C29.64 41.3809 28.7551 41.7474 27.8324 41.7474C26.9097 41.7474 26.0248 41.3809 25.3723 40.7284C24.7199 40.076 24.3533 39.1911 24.3533 38.2684V27.8312ZM41.7485 24.3522C40.8258 24.3522 39.9409 24.7187 39.2885 25.3712C38.636 26.0236 38.2695 26.9085 38.2695 27.8312V38.2684C38.2695 39.1911 38.636 40.076 39.2885 40.7284C39.9409 41.3809 40.8258 41.7474 41.7485 41.7474C42.6712 41.7474 43.5562 41.3809 44.2086 40.7284C44.8611 40.076 45.2276 39.1911 45.2276 38.2684V27.8312C45.2276 26.9085 44.8611 26.0236 44.2086 25.3712C43.5562 24.7187 42.6712 24.3522 41.7485 24.3522Z" fill="#F58253"/>
<path d="M72.5277 14.1518H71.6432V47.7622H72.5277V14.1518Z" fill="#CCCCCC"/>
<path d="M44.5033 79.7451C44.0198 79.7451 43.6188 79.6508 43.3004 79.4621C42.982 79.2616 42.7579 78.8842 42.6282 78.3299H42.5398L42.469 79.6036H41.673V66.4601H42.6105V71.714H42.699C42.8169 71.2658 43.0174 70.9415 43.3004 70.741C43.5953 70.5406 43.9962 70.4403 44.5033 70.4403C45.1519 70.4403 45.6355 70.57 45.9539 70.8295C46.2723 71.0889 46.4905 71.543 46.6084 72.1916C46.7263 72.8284 46.7853 73.7955 46.7853 75.0927C46.7853 76.4017 46.7204 77.3806 46.5907 78.0292C46.4728 78.666 46.2546 79.1142 45.9362 79.3736C45.6296 79.6213 45.1519 79.7451 44.5033 79.7451ZM44.2203 78.896C44.7274 78.896 45.0871 78.8134 45.2994 78.6483C45.5116 78.4714 45.6532 78.1294 45.7239 77.6223C45.8065 77.1152 45.8477 76.272 45.8477 75.0927C45.8477 73.9134 45.8065 73.0702 45.7239 72.5631C45.6532 72.056 45.5116 71.7199 45.2994 71.5548C45.0871 71.3779 44.7274 71.2894 44.2203 71.2894C43.8075 71.2894 43.4832 71.3838 43.2474 71.5725C43.0233 71.7612 42.87 72.0678 42.7874 72.4923C42.6695 73.082 42.6105 73.9488 42.6105 75.0927C42.6105 75.6942 42.6164 76.1895 42.6282 76.5786C42.6518 76.9678 42.699 77.3275 42.7697 77.6577C42.8523 78.0941 43.0115 78.4125 43.2474 78.613C43.4832 78.8016 43.8075 78.896 44.2203 78.896Z" fill="#999999"/>
<path d="M55.8913 75.3934H51.8227C51.8227 76.443 51.8581 77.2037 51.9288 77.6754C52.0114 78.1353 52.1824 78.4596 52.4418 78.6483C52.7013 78.8252 53.1258 78.9137 53.7155 78.9137C54.0103 78.9137 54.3464 78.896 54.7238 78.8606C55.113 78.8134 55.4373 78.7604 55.6967 78.7014V79.5151C55.4609 79.5741 55.1425 79.6272 54.7415 79.6743C54.3405 79.7215 53.9514 79.7451 53.574 79.7451C52.7721 79.7451 52.1824 79.6095 51.805 79.3382C51.4394 79.067 51.1918 78.6189 51.062 77.9938C50.9441 77.3688 50.8852 76.4076 50.8852 75.1104C50.8852 73.7896 50.9323 72.8284 51.0267 72.227C51.121 71.6137 51.351 71.1656 51.7166 70.8826C52.0939 70.5877 52.6954 70.4403 53.5209 70.4403C54.2757 70.4403 54.8123 70.5759 55.1307 70.8472C55.4609 71.1184 55.6673 71.5548 55.7498 72.1562C55.8442 72.7577 55.8913 73.7306 55.8913 75.075V75.3934ZM53.5032 71.2717C52.9843 71.2717 52.6069 71.3484 52.3711 71.5017C52.147 71.655 51.9996 71.9557 51.9288 72.4039C51.8581 72.852 51.8227 73.6009 51.8227 74.6505H54.9892V74.3321C54.9892 73.4004 54.9479 72.7223 54.8653 72.2977C54.7828 71.8732 54.6413 71.596 54.4408 71.4663C54.2403 71.3366 53.9278 71.2717 53.5032 71.2717Z" fill="#999999"/>
<path d="M64.2627 74.1552C64.2627 73.2943 64.2273 72.6692 64.1566 72.28C64.0858 71.8791 63.9502 71.6137 63.7497 71.484C63.5492 71.3543 63.2308 71.2894 62.7945 71.2894C62.2874 71.2894 61.9159 71.4368 61.68 71.7317C61.4559 72.0147 61.3144 72.3921 61.2555 72.8638C61.2083 73.3355 61.1847 74.0372 61.1847 74.9689V79.6036H60.2471V70.5818H61.0432L61.1139 71.8555H61.2024C61.3085 71.4192 61.509 71.0772 61.8038 70.8295C62.1105 70.57 62.5586 70.4403 63.1482 70.4403C63.7379 70.4403 64.1742 70.5524 64.4573 70.7764C64.7521 70.9887 64.9467 71.3307 65.041 71.8024C65.1472 72.2742 65.2003 72.9582 65.2003 73.8544V79.6036H64.2627V74.1552Z" fill="#999999"/>
<path d="M74.4828 75.3934H70.4141C70.4141 76.443 70.4495 77.2037 70.5203 77.6754C70.6028 78.1353 70.7738 78.4596 71.0333 78.6483C71.2927 78.8252 71.7173 78.9137 72.3069 78.9137C72.6018 78.9137 72.9379 78.896 73.3153 78.8606C73.7044 78.8134 74.0287 78.7604 74.2882 78.7014V79.5151C74.0523 79.5741 73.7339 79.6272 73.3329 79.6743C72.932 79.7215 72.5428 79.7451 72.1654 79.7451C71.3635 79.7451 70.7738 79.6095 70.3965 79.3382C70.0309 79.067 69.7832 78.6189 69.6535 77.9938C69.5356 77.3688 69.4766 76.4076 69.4766 75.1104C69.4766 73.7896 69.5238 72.8284 69.6181 72.227C69.7125 71.6137 69.9424 71.1656 70.308 70.8826C70.6854 70.5877 71.2868 70.4403 72.1124 70.4403C72.8671 70.4403 73.4037 70.5759 73.7221 70.8472C74.0523 71.1184 74.2587 71.5548 74.3413 72.1562C74.4356 72.7577 74.4828 73.7306 74.4828 75.075V75.3934ZM72.0947 71.2717C71.5758 71.2717 71.1984 71.3484 70.9625 71.5017C70.7385 71.655 70.591 71.9557 70.5203 72.4039C70.4495 72.852 70.4141 73.6009 70.4141 74.6505H73.5806V74.3321C73.5806 73.4004 73.5393 72.7223 73.4568 72.2977C73.3742 71.8732 73.2327 71.596 73.0322 71.4663C72.8317 71.3366 72.5192 71.2717 72.0947 71.2717Z" fill="#999999"/>
<path d="M79.2808 71.4133H78.1841V70.5818H79.2808V68.8659C79.2808 68.1466 79.3575 67.6218 79.5108 67.2916C79.6641 66.9496 79.8941 66.7255 80.2007 66.6194C80.5191 66.5132 80.9849 66.4601 81.5982 66.4601V67.2031C81.209 67.2031 80.9201 67.2444 80.7314 67.3269C80.5427 67.3977 80.4071 67.5333 80.3245 67.7338C80.2538 67.9343 80.2184 68.2468 80.2184 68.6714V70.5818H81.5982V71.4133H80.2184V79.6036H79.2808V71.4133Z" fill="#999999"/>
<path d="M85.569 79.6036V70.5818H86.5065V79.6036H85.569ZM85.569 68.9367V68.8483L86.1527 66.4601H87.1433V66.5486L86.2589 68.9367H85.569Z" fill="#999999"/>
<path d="M94.9283 79.5328C94.7278 79.5918 94.4802 79.639 94.1853 79.6743C93.8905 79.7215 93.6134 79.7451 93.3539 79.7451C92.611 79.7451 92.0626 79.5977 91.7088 79.3029C91.355 78.9962 91.125 78.5304 91.0189 77.9054C90.9128 77.2803 90.8597 76.3487 90.8597 75.1104C90.8597 73.8367 90.9245 72.8756 91.0543 72.227C91.1958 71.5784 91.4375 71.1184 91.7795 70.8472C92.1216 70.5759 92.6287 70.4403 93.3009 70.4403C93.8787 70.4403 94.4035 70.5052 94.8752 70.6349V71.4486C94.4389 71.3307 93.979 71.2717 93.4955 71.2717C93.0001 71.2717 92.6346 71.372 92.3987 71.5725C92.1628 71.7729 92.0036 72.1326 91.9211 72.6515C91.8385 73.1704 91.7972 73.9783 91.7972 75.075C91.7972 76.219 91.8385 77.0504 91.9211 77.5693C92.0036 78.0882 92.1628 78.442 92.3987 78.6306C92.6346 78.8193 93.0119 78.9137 93.5308 78.9137C93.7667 78.9137 94.0144 78.896 94.2738 78.8606C94.5332 78.8252 94.7514 78.7781 94.9283 78.7191V79.5328Z" fill="#999999"/>
<path d="M99.0116 67.7515V66.4601H100.002V67.7515H99.0116ZM99.047 79.6036V70.5818H99.9845V79.6036H99.047Z" fill="#999999"/>
<path d="M106.938 79.7451C106.136 79.7451 105.552 79.6272 105.187 79.3913C104.833 79.1436 104.603 78.7132 104.497 78.1C104.391 77.4867 104.338 76.4902 104.338 75.1104C104.338 73.7306 104.391 72.7341 104.497 72.1208C104.603 71.4958 104.833 71.0595 105.187 70.8118C105.552 70.5642 106.136 70.4403 106.938 70.4403C107.74 70.4403 108.318 70.5642 108.672 70.8118C109.025 71.0595 109.255 71.4958 109.362 72.1208C109.48 72.7341 109.538 73.7306 109.538 75.1104C109.538 76.4784 109.48 77.4749 109.362 78.1C109.255 78.7132 109.025 79.1436 108.672 79.3913C108.318 79.6272 107.74 79.7451 106.938 79.7451ZM106.938 78.9137C107.469 78.9137 107.846 78.8252 108.07 78.6483C108.294 78.4596 108.436 78.1235 108.495 77.64C108.566 77.1447 108.601 76.3015 108.601 75.1104C108.601 73.9075 108.566 73.0584 108.495 72.5631C108.436 72.0678 108.294 71.7317 108.07 71.5548C107.846 71.3661 107.469 71.2717 106.938 71.2717C106.396 71.2717 106.012 71.3661 105.788 71.5548C105.564 71.7317 105.423 72.0678 105.364 72.5631C105.305 73.0584 105.275 73.9075 105.275 75.1104C105.275 76.3133 105.305 77.1565 105.364 77.64C105.423 78.1235 105.564 78.4596 105.788 78.6483C106.012 78.8252 106.396 78.9137 106.938 78.9137Z" fill="#999999"/>
<path d="M115.623 79.7451C115.293 79.7451 114.939 79.7215 114.562 79.6743C114.185 79.639 113.878 79.5918 113.642 79.5328V78.7191C113.843 78.7781 114.131 78.8252 114.509 78.8606C114.886 78.896 115.252 78.9137 115.606 78.9137C116.172 78.9137 116.555 78.7722 116.755 78.4891C116.968 78.1943 117.074 77.7639 117.074 77.1978C117.074 76.7143 117.05 76.3664 117.003 76.1541C116.956 75.93 116.879 75.7826 116.773 75.7118C116.667 75.6411 116.49 75.588 116.242 75.5526L114.721 75.305C114.249 75.2224 113.919 75.0161 113.731 74.6858C113.554 74.3438 113.465 73.7955 113.465 73.0407C113.465 72.0501 113.666 71.372 114.067 71.0064C114.468 70.629 115.075 70.4403 115.889 70.4403C116.207 70.4403 116.531 70.4639 116.862 70.5111C117.204 70.5465 117.475 70.5995 117.675 70.6703V71.484C117.487 71.425 117.215 71.3779 116.862 71.3425C116.52 71.2953 116.178 71.2717 115.836 71.2717C115.364 71.2717 115.004 71.3897 114.757 71.6255C114.521 71.8614 114.403 72.2977 114.403 72.9346C114.403 73.3709 114.426 73.6893 114.473 73.8898C114.521 74.0903 114.597 74.2318 114.703 74.3144C114.81 74.3969 114.975 74.4559 115.199 74.4913L116.667 74.7212C117.009 74.7802 117.268 74.8804 117.445 75.022C117.634 75.1635 117.77 75.3993 117.852 75.7295C117.947 76.0597 117.994 76.5374 117.994 77.1624C117.994 78.0941 117.805 78.7604 117.428 79.1613C117.062 79.5505 116.461 79.7451 115.623 79.7451Z" fill="#999999"/>
<path d="M132.489 75.3934H128.42C128.42 76.443 128.456 77.2037 128.527 77.6754C128.609 78.1353 128.78 78.4596 129.04 78.6483C129.299 78.8252 129.724 78.9137 130.313 78.9137C130.608 78.9137 130.944 78.896 131.322 78.8606C131.711 78.8134 132.035 78.7604 132.294 78.7014V79.5151C132.059 79.5741 131.74 79.6272 131.339 79.6743C130.938 79.7215 130.549 79.7451 130.172 79.7451C129.37 79.7451 128.78 79.6095 128.403 79.3382C128.037 79.067 127.789 78.6189 127.66 77.9938C127.542 77.3688 127.483 76.4076 127.483 75.1104C127.483 73.7896 127.53 72.8284 127.624 72.227C127.719 71.6137 127.949 71.1656 128.314 70.8826C128.692 70.5877 129.293 70.4403 130.119 70.4403C130.873 70.4403 131.41 70.5759 131.728 70.8472C132.059 71.1184 132.265 71.5548 132.348 72.1562C132.442 72.7577 132.489 73.7306 132.489 75.075V75.3934ZM130.101 71.2717C129.582 71.2717 129.205 71.3484 128.969 71.5017C128.745 71.655 128.597 71.9557 128.527 72.4039C128.456 72.852 128.42 73.6009 128.42 74.6505H131.587V74.3321C131.587 73.4004 131.546 72.7223 131.463 72.2977C131.38 71.8732 131.239 71.596 131.038 71.4663C130.838 71.3366 130.525 71.2717 130.101 71.2717Z" fill="#999999"/>
<path d="M142.401 70.5818H143.197L143.267 72.28H143.356C143.497 71.5725 143.733 71.0889 144.063 70.8295C144.405 70.57 144.853 70.4403 145.408 70.4403V71.4309C144.618 71.4309 144.075 71.7199 143.78 72.2977C143.485 72.8638 143.338 73.7837 143.338 75.0573V79.6036H142.401V70.5818Z" fill="#999999"/>
<path d="M153.941 75.3934H149.873C149.873 76.443 149.908 77.2037 149.979 77.6754C150.061 78.1353 150.232 78.4596 150.492 78.6483C150.751 78.8252 151.176 78.9137 151.765 78.9137C152.06 78.9137 152.396 78.896 152.774 78.8606C153.163 78.8134 153.487 78.7604 153.747 78.7014V79.5151C153.511 79.5741 153.192 79.6272 152.791 79.6743C152.39 79.7215 152.001 79.7451 151.624 79.7451C150.822 79.7451 150.232 79.6095 149.855 79.3382C149.489 79.067 149.242 78.6189 149.112 77.9938C148.994 77.3688 148.935 76.4076 148.935 75.1104C148.935 73.7896 148.982 72.8284 149.077 72.227C149.171 71.6137 149.401 71.1656 149.766 70.8826C150.144 70.5877 150.745 70.4403 151.571 70.4403C152.326 70.4403 152.862 70.5759 153.181 70.8472C153.511 71.1184 153.717 71.5548 153.8 72.1562C153.894 72.7577 153.941 73.7306 153.941 75.075V75.3934ZM151.553 71.2717C151.034 71.2717 150.657 71.3484 150.421 71.5017C150.197 71.655 150.05 71.9557 149.979 72.4039C149.908 72.852 149.873 73.6009 149.873 74.6505H153.039V74.3321C153.039 73.4004 152.998 72.7223 152.915 72.2977C152.833 71.8732 152.691 71.596 152.491 71.4663C152.29 71.3366 151.978 71.2717 151.553 71.2717Z" fill="#999999"/>
<path d="M159.663 79.6036L157.452 70.5818H158.407L160.159 78.1176H160.247L161.963 70.5818H162.918L160.707 79.6036H159.663Z" fill="#999999"/>
<path d="M166.806 67.7515V66.4601H167.797V67.7515H166.806ZM166.841 79.6036V70.5818H167.779V79.6036H166.841Z" fill="#999999"/>
<path d="M174.113 79.7451C173.783 79.7451 173.429 79.7215 173.052 79.6743C172.675 79.639 172.368 79.5918 172.132 79.5328V78.7191C172.333 78.7781 172.621 78.8252 172.999 78.8606C173.376 78.896 173.742 78.9137 174.096 78.9137C174.662 78.9137 175.045 78.7722 175.245 78.4891C175.458 78.1943 175.564 77.7639 175.564 77.1978C175.564 76.7143 175.54 76.3664 175.493 76.1541C175.446 75.93 175.369 75.7826 175.263 75.7118C175.157 75.6411 174.98 75.588 174.732 75.5526L173.211 75.305C172.739 75.2224 172.409 75.0161 172.22 74.6858C172.044 74.3438 171.955 73.7955 171.955 73.0407C171.955 72.0501 172.156 71.372 172.557 71.0064C172.958 70.629 173.565 70.4403 174.379 70.4403C174.697 70.4403 175.021 70.4639 175.352 70.5111C175.694 70.5465 175.965 70.5995 176.165 70.6703V71.484C175.977 71.425 175.705 71.3779 175.352 71.3425C175.01 71.2953 174.668 71.2717 174.326 71.2717C173.854 71.2717 173.494 71.3897 173.246 71.6255C173.011 71.8614 172.893 72.2977 172.893 72.9346C172.893 73.3709 172.916 73.6893 172.963 73.8898C173.011 74.0903 173.087 74.2318 173.193 74.3144C173.3 74.3969 173.465 74.4559 173.689 74.4913L175.157 74.7212C175.499 74.7802 175.758 74.8804 175.935 75.022C176.124 75.1635 176.26 75.3993 176.342 75.7295C176.437 76.0597 176.484 76.5374 176.484 77.1624C176.484 78.0941 176.295 78.7604 175.918 79.1613C175.552 79.5505 174.951 79.7451 174.113 79.7451Z" fill="#999999"/>
<path d="M183.018 79.7451C182.216 79.7451 181.632 79.6272 181.266 79.3913C180.912 79.1436 180.682 78.7132 180.576 78.1C180.47 77.4867 180.417 76.4902 180.417 75.1104C180.417 73.7306 180.47 72.7341 180.576 72.1208C180.682 71.4958 180.912 71.0595 181.266 70.8118C181.632 70.5642 182.216 70.4403 183.018 70.4403C183.819 70.4403 184.397 70.5642 184.751 70.8118C185.105 71.0595 185.335 71.4958 185.441 72.1208C185.559 72.7341 185.618 73.7306 185.618 75.1104C185.618 76.4784 185.559 77.4749 185.441 78.1C185.335 78.7132 185.105 79.1436 184.751 79.3913C184.397 79.6272 183.819 79.7451 183.018 79.7451ZM183.018 78.9137C183.548 78.9137 183.926 78.8252 184.15 78.6483C184.374 78.4596 184.515 78.1235 184.574 77.64C184.645 77.1447 184.68 76.3015 184.68 75.1104C184.68 73.9075 184.645 73.0584 184.574 72.5631C184.515 72.0678 184.374 71.7317 184.15 71.5548C183.926 71.3661 183.548 71.2717 183.018 71.2717C182.475 71.2717 182.092 71.3661 181.868 71.5548C181.644 71.7317 181.502 72.0678 181.443 72.5631C181.384 73.0584 181.355 73.9075 181.355 75.1104C181.355 76.3133 181.384 77.1565 181.443 77.64C181.502 78.1235 181.644 78.4596 181.868 78.6483C182.092 78.8252 182.475 78.9137 183.018 78.9137ZM185.123 66.4601C185.123 67.1324 185.064 67.6041 184.946 67.8753C184.828 68.1348 184.58 68.2645 184.203 68.2645C184.014 68.2645 183.831 68.2291 183.654 68.1584C183.477 68.0876 183.242 67.9815 182.947 67.8399C182.735 67.7102 182.546 67.6159 182.381 67.5569C182.227 67.4861 182.074 67.4508 181.921 67.4508C181.779 67.4508 181.685 67.5215 181.638 67.663C181.602 67.7928 181.585 68.0581 181.585 68.4591H180.93C180.93 67.7751 180.989 67.3034 181.107 67.0439C181.225 66.7845 181.473 66.6547 181.85 66.6547C182.051 66.6547 182.251 66.696 182.451 66.7786C182.652 66.8493 182.888 66.9614 183.159 67.1147C183.383 67.2326 183.566 67.321 183.707 67.38C183.849 67.439 183.985 67.4685 184.114 67.4685C184.256 67.4685 184.35 67.3977 184.397 67.2562C184.445 67.1029 184.468 66.8375 184.468 66.4601H185.123Z" fill="#999999"/>
<path d="M194.728 75.3934H190.659C190.659 76.443 190.694 77.2037 190.765 77.6754C190.848 78.1353 191.019 78.4596 191.278 78.6483C191.538 78.8252 191.962 78.9137 192.552 78.9137C192.847 78.9137 193.183 78.896 193.56 78.8606C193.949 78.8134 194.274 78.7604 194.533 78.7014V79.5151C194.297 79.5741 193.979 79.6272 193.578 79.6743C193.177 79.7215 192.788 79.7451 192.41 79.7451C191.608 79.7451 191.019 79.6095 190.641 79.3382C190.276 79.067 190.028 78.6189 189.898 77.9938C189.78 77.3688 189.722 76.4076 189.722 75.1104C189.722 73.7896 189.769 72.8284 189.863 72.227C189.957 71.6137 190.187 71.1656 190.553 70.8826C190.93 70.5877 191.532 70.4403 192.357 70.4403C193.112 70.4403 193.649 70.5759 193.967 70.8472C194.297 71.1184 194.504 71.5548 194.586 72.1562C194.681 72.7577 194.728 73.7306 194.728 75.075V75.3934ZM192.34 71.2717C191.821 71.2717 191.443 71.3484 191.207 71.5017C190.983 71.655 190.836 71.9557 190.765 72.4039C190.694 72.852 190.659 73.6009 190.659 74.6505H193.826V74.3321C193.826 73.4004 193.784 72.7223 193.702 72.2977C193.619 71.8732 193.478 71.596 193.277 71.4663C193.077 71.3366 192.764 71.2717 192.34 71.2717Z" fill="#999999"/>
<path d="M200.817 79.7451C200.487 79.7451 200.133 79.7215 199.756 79.6743C199.378 79.639 199.072 79.5918 198.836 79.5328V78.7191C199.036 78.7781 199.325 78.8252 199.703 78.8606C200.08 78.896 200.446 78.9137 200.799 78.9137C201.365 78.9137 201.749 78.7722 201.949 78.4891C202.162 78.1943 202.268 77.7639 202.268 77.1978C202.268 76.7143 202.244 76.3664 202.197 76.1541C202.15 75.93 202.073 75.7826 201.967 75.7118C201.861 75.6411 201.684 75.588 201.436 75.5526L199.915 75.305C199.443 75.2224 199.113 75.0161 198.924 74.6858C198.747 74.3438 198.659 73.7955 198.659 73.0407C198.659 72.0501 198.859 71.372 199.26 71.0064C199.661 70.629 200.269 70.4403 201.082 70.4403C201.401 70.4403 201.725 70.4639 202.055 70.5111C202.397 70.5465 202.669 70.5995 202.869 70.6703V71.484C202.68 71.425 202.409 71.3779 202.055 71.3425C201.713 71.2953 201.371 71.2717 201.029 71.2717C200.558 71.2717 200.198 71.3897 199.95 71.6255C199.714 71.8614 199.597 72.2977 199.597 72.9346C199.597 73.3709 199.62 73.6893 199.667 73.8898C199.714 74.0903 199.791 74.2318 199.897 74.3144C200.003 74.3969 200.168 74.4559 200.393 74.4913L201.861 74.7212C202.203 74.7802 202.462 74.8804 202.639 75.022C202.828 75.1635 202.963 75.3993 203.046 75.7295C203.14 76.0597 203.188 76.5374 203.188 77.1624C203.188 78.0941 202.999 78.7604 202.621 79.1613C202.256 79.5505 201.654 79.7451 200.817 79.7451Z" fill="#999999"/>
<path d="M212.924 70.5818H213.72L213.791 71.8555H213.88C214.009 71.3012 214.233 70.9297 214.552 70.741C214.87 70.5406 215.271 70.4403 215.755 70.4403C216.403 70.4403 216.881 70.57 217.188 70.8295C217.506 71.0772 217.724 71.5253 217.842 72.1739C217.972 72.8107 218.037 73.7837 218.037 75.0927C218.037 76.39 217.978 77.3629 217.86 78.0115C217.742 78.6483 217.524 79.0965 217.205 79.3559C216.887 79.6154 216.403 79.7451 215.755 79.7451C215.248 79.7451 214.847 79.6449 214.552 79.4444C214.269 79.2439 214.068 78.9196 213.95 78.4714H213.862V83H212.924V70.5818ZM215.472 78.896C215.979 78.896 216.338 78.8134 216.551 78.6483C216.763 78.4714 216.904 78.1294 216.975 77.6223C217.058 77.1152 217.099 76.272 217.099 75.0927C217.099 73.9134 217.058 73.0702 216.975 72.5631C216.904 72.056 216.763 71.7199 216.551 71.5548C216.338 71.3779 215.979 71.2894 215.472 71.2894C215.047 71.2894 214.717 71.3897 214.481 71.5902C214.245 71.7788 214.086 72.1032 214.003 72.5631C213.909 73.0702 213.862 73.9134 213.862 75.0927C213.862 76.2956 213.903 77.0857 213.986 77.4631C214.092 77.9938 214.257 78.3653 214.481 78.5776C214.717 78.7899 215.047 78.896 215.472 78.896Z" fill="#999999"/>
<path d="M222.384 70.5818H223.18L223.251 72.28H223.339C223.481 71.5725 223.717 71.0889 224.047 70.8295C224.389 70.57 224.837 70.4403 225.391 70.4403V71.4309C224.601 71.4309 224.059 71.7199 223.764 72.2977C223.469 72.8638 223.322 73.7837 223.322 75.0573V79.6036H222.384V70.5818Z" fill="#999999"/>
<path d="M233.925 75.3934H229.856C229.856 76.443 229.892 77.2037 229.962 77.6754C230.045 78.1353 230.216 78.4596 230.475 78.6483C230.735 78.8252 231.159 78.9137 231.749 78.9137C232.044 78.9137 232.38 78.896 232.757 78.8606C233.146 78.8134 233.471 78.7604 233.73 78.7014V79.5151C233.494 79.5741 233.176 79.6272 232.775 79.6743C232.374 79.7215 231.985 79.7451 231.607 79.7451C230.806 79.7451 230.216 79.6095 229.839 79.3382C229.473 79.067 229.225 78.6189 229.096 77.9938C228.978 77.3688 228.919 76.4076 228.919 75.1104C228.919 73.7896 228.966 72.8284 229.06 72.227C229.155 71.6137 229.385 71.1656 229.75 70.8826C230.127 70.5877 230.729 70.4403 231.554 70.4403C232.309 70.4403 232.846 70.5759 233.164 70.8472C233.494 71.1184 233.701 71.5548 233.783 72.1562C233.878 72.7577 233.925 73.7306 233.925 75.075V75.3934ZM231.537 71.2717C231.018 71.2717 230.64 71.3484 230.405 71.5017C230.181 71.655 230.033 71.9557 229.962 72.4039C229.892 72.852 229.856 73.6009 229.856 74.6505H233.023V74.3321C233.023 73.4004 232.981 72.7223 232.899 72.2977C232.816 71.8732 232.675 71.596 232.474 71.4663C232.274 71.3366 231.961 71.2717 231.537 71.2717Z" fill="#999999"/>
<path d="M239.647 79.6036L237.436 70.5818H238.391L240.142 78.1176H240.231L241.947 70.5818H242.902L240.691 79.6036H239.647Z" fill="#999999"/>
<path d="M246.79 67.7515V66.4601H247.78V67.7515H246.79ZM246.825 79.6036V70.5818H247.762V79.6036H246.825Z" fill="#999999"/>
<path d="M254.415 79.7451C253.767 79.7451 253.283 79.6213 252.965 79.3736C252.646 79.1142 252.422 78.6601 252.293 78.0115C252.175 77.3629 252.116 76.39 252.116 75.0927C252.116 73.7955 252.175 72.8284 252.293 72.1916C252.41 71.543 252.629 71.0889 252.947 70.8295C253.277 70.57 253.767 70.4403 254.415 70.4403C254.922 70.4403 255.317 70.5406 255.601 70.741C255.895 70.9415 256.102 71.2658 256.22 71.714H256.308V66.4601H257.246V79.6036H256.432L256.361 78.3299H256.273C256.155 78.8842 255.931 79.2616 255.601 79.4621C255.282 79.6508 254.887 79.7451 254.415 79.7451ZM254.681 78.896C255.105 78.896 255.435 78.8016 255.671 78.613C255.907 78.4243 256.066 78.1117 256.149 77.6754C256.22 77.3098 256.261 76.9265 256.273 76.5256C256.296 76.1128 256.308 75.5644 256.308 74.8804C256.308 73.9134 256.261 73.1704 256.167 72.6515C256.06 72.1562 255.889 71.8083 255.654 71.6078C255.418 71.3956 255.076 71.2894 254.628 71.2894C254.144 71.2894 253.796 71.3779 253.584 71.5548C253.383 71.7199 253.242 72.056 253.159 72.5631C253.089 73.0702 253.053 73.9134 253.053 75.0927C253.053 76.272 253.089 77.1152 253.159 77.6223C253.242 78.1294 253.389 78.4714 253.602 78.6483C253.826 78.8134 254.185 78.896 254.681 78.896Z" fill="#999999"/>
<path d="M266.582 75.3934H262.513C262.513 76.443 262.548 77.2037 262.619 77.6754C262.702 78.1353 262.873 78.4596 263.132 78.6483C263.392 78.8252 263.816 78.9137 264.406 78.9137C264.701 78.9137 265.037 78.896 265.414 78.8606C265.803 78.8134 266.128 78.7604 266.387 78.7014V79.5151C266.151 79.5741 265.833 79.6272 265.432 79.6743C265.031 79.7215 264.642 79.7451 264.264 79.7451C263.462 79.7451 262.873 79.6095 262.495 79.3382C262.13 79.067 261.882 78.6189 261.752 77.9938C261.634 77.3688 261.575 76.4076 261.575 75.1104C261.575 73.7896 261.623 72.8284 261.717 72.227C261.811 71.6137 262.041 71.1656 262.407 70.8826C262.784 70.5877 263.386 70.4403 264.211 70.4403C264.966 70.4403 265.503 70.5759 265.821 70.8472C266.151 71.1184 266.358 71.5548 266.44 72.1562C266.535 72.7577 266.582 73.7306 266.582 75.075V75.3934ZM264.194 71.2717C263.675 71.2717 263.297 71.3484 263.061 71.5017C262.837 71.655 262.69 71.9557 262.619 72.4039C262.548 72.852 262.513 73.6009 262.513 74.6505H265.679V74.3321C265.679 73.4004 265.638 72.7223 265.556 72.2977C265.473 71.8732 265.332 71.596 265.131 71.4663C264.931 71.3366 264.618 71.2717 264.194 71.2717Z" fill="#999999"/>
<path d="M274.953 74.1552C274.953 73.2943 274.918 72.6692 274.847 72.28C274.776 71.8791 274.641 71.6137 274.44 71.484C274.24 71.3543 273.921 71.2894 273.485 71.2894C272.978 71.2894 272.606 71.4368 272.37 71.7317C272.146 72.0147 272.005 72.3921 271.946 72.8638C271.899 73.3355 271.875 74.0372 271.875 74.9689V79.6036H270.937V70.5818H271.734L271.804 71.8555H271.893C271.999 71.4192 272.199 71.0772 272.494 70.8295C272.801 70.57 273.249 70.4403 273.839 70.4403C274.428 70.4403 274.865 70.5524 275.148 70.7764C275.442 70.9887 275.637 71.3307 275.731 71.8024C275.838 72.2742 275.891 72.9582 275.891 73.8544V79.6036H274.953V74.1552Z" fill="#999999"/>
<path d="M284.236 79.5328C284.035 79.5918 283.787 79.639 283.493 79.6743C283.198 79.7215 282.921 79.7451 282.661 79.7451C281.918 79.7451 281.37 79.5977 281.016 79.3029C280.662 78.9962 280.432 78.5304 280.326 77.9054C280.22 77.2803 280.167 76.3487 280.167 75.1104C280.167 73.8367 280.232 72.8756 280.362 72.227C280.503 71.5784 280.745 71.1184 281.087 70.8472C281.429 70.5759 281.936 70.4403 282.608 70.4403C283.186 70.4403 283.711 70.5052 284.182 70.6349V71.4486C283.746 71.3307 283.286 71.2717 282.803 71.2717C282.307 71.2717 281.942 71.372 281.706 71.5725C281.47 71.7729 281.311 72.1326 281.228 72.6515C281.146 73.1704 281.104 73.9783 281.104 75.075C281.104 76.219 281.146 77.0504 281.228 77.5693C281.311 78.0882 281.47 78.442 281.706 78.6306C281.942 78.8193 282.319 78.9137 282.838 78.9137C283.074 78.9137 283.322 78.896 283.581 78.8606C283.84 78.8252 284.059 78.7781 284.236 78.7191V79.5328Z" fill="#999999"/>
<path d="M288.319 67.7515V66.4601H289.309V67.7515H288.319ZM288.354 79.6036V70.5818H289.292V79.6036H288.354Z" fill="#999999"/>
<path d="M295.52 79.7451C295.001 79.7451 294.588 79.6743 294.282 79.5328C293.987 79.3795 293.763 79.1142 293.61 78.7368C293.468 78.3594 293.397 77.8228 293.397 77.127C293.397 76.4548 293.456 75.9359 293.574 75.5703C293.704 75.193 293.91 74.9276 294.193 74.7743C294.476 74.6092 294.883 74.5266 295.414 74.5266C295.791 74.5266 296.469 74.5561 297.448 74.6151V73.8721C297.448 73.0702 297.401 72.4923 297.307 72.1385C297.224 71.7847 297.065 71.5548 296.829 71.4486C296.593 71.3307 296.198 71.2717 295.644 71.2717C295.361 71.2717 295.037 71.2953 294.671 71.3425C294.317 71.3779 294.016 71.4192 293.769 71.4663V70.6526C294.406 70.5111 295.113 70.4403 295.892 70.4403C296.576 70.4403 297.089 70.5347 297.431 70.7234C297.784 70.912 298.032 71.2482 298.173 71.7317C298.315 72.2034 298.386 72.8992 298.386 73.8191V79.6036H297.572L297.501 78.3299H297.413C297.295 78.8842 297.065 79.2616 296.723 79.4621C296.393 79.6508 295.992 79.7451 295.52 79.7451ZM295.697 78.896C296.11 78.896 296.44 78.837 296.688 78.7191C296.947 78.6012 297.13 78.3476 297.236 77.9584C297.377 77.4277 297.448 76.7614 297.448 75.9595V75.2696H295.609C295.243 75.2696 294.972 75.3168 294.795 75.4111C294.618 75.4937 294.494 75.6647 294.423 75.9241C294.353 76.1718 294.317 76.561 294.317 77.0916C294.317 77.587 294.353 77.9643 294.423 78.2238C294.506 78.4714 294.641 78.6483 294.83 78.7545C295.019 78.8488 295.308 78.896 295.697 78.896ZM295.679 68.9367V68.8483L296.263 66.4601H297.254V66.5486L296.369 68.9367H295.679Z" fill="#999999"/>
<path d="M302.921 70.5818H303.717L303.787 72.28H303.876C304.017 71.5725 304.253 71.0889 304.583 70.8295C304.925 70.57 305.374 70.4403 305.928 70.4403V71.4309C305.138 71.4309 304.595 71.7199 304.3 72.2977C304.006 72.8638 303.858 73.7837 303.858 75.0573V79.6036H302.921V70.5818Z" fill="#999999"/>
<path d="M309.754 67.7515V66.4601H310.744V67.7515H309.754ZM309.789 79.6036V70.5818H310.727V79.6036H309.789Z" fill="#999999"/>
<path d="M316.955 79.7451C316.436 79.7451 316.023 79.6743 315.717 79.5328C315.422 79.3795 315.198 79.1142 315.044 78.7368C314.903 78.3594 314.832 77.8228 314.832 77.127C314.832 76.4548 314.891 75.9359 315.009 75.5703C315.139 75.193 315.345 74.9276 315.628 74.7743C315.911 74.6092 316.318 74.5266 316.849 74.5266C317.226 74.5266 317.904 74.5561 318.883 74.6151V73.8721C318.883 73.0702 318.836 72.4923 318.742 72.1385C318.659 71.7847 318.5 71.5548 318.264 71.4486C318.028 71.3307 317.633 71.2717 317.079 71.2717C316.796 71.2717 316.471 71.2953 316.106 71.3425C315.752 71.3779 315.451 71.4192 315.204 71.4663V70.6526C315.841 70.5111 316.548 70.4403 317.326 70.4403C318.01 70.4403 318.523 70.5347 318.865 70.7234C319.219 70.912 319.467 71.2482 319.608 71.7317C319.75 72.2034 319.821 72.8992 319.821 73.8191V79.6036H319.007L318.936 78.3299H318.848C318.73 78.8842 318.5 79.2616 318.158 79.4621C317.828 79.6508 317.427 79.7451 316.955 79.7451ZM317.132 78.896C317.545 78.896 317.875 78.837 318.122 78.7191C318.382 78.6012 318.565 78.3476 318.671 77.9584C318.812 77.4277 318.883 76.7614 318.883 75.9595V75.2696H317.043C316.678 75.2696 316.407 75.3168 316.23 75.4111C316.053 75.4937 315.929 75.6647 315.858 75.9241C315.787 76.1718 315.752 76.561 315.752 77.0916C315.752 77.587 315.787 77.9643 315.858 78.2238C315.941 78.4714 316.076 78.6483 316.265 78.7545C316.454 78.8488 316.743 78.896 317.132 78.896Z" fill="#999999"/>
<path d="M326.089 79.7451C325.759 79.7451 325.405 79.7215 325.028 79.6743C324.65 79.639 324.344 79.5918 324.108 79.5328V78.7191C324.308 78.7781 324.597 78.8252 324.975 78.8606C325.352 78.896 325.718 78.9137 326.071 78.9137C326.637 78.9137 327.021 78.7722 327.221 78.4891C327.433 78.1943 327.54 77.7639 327.54 77.1978C327.54 76.7143 327.516 76.3664 327.469 76.1541C327.422 75.93 327.345 75.7826 327.239 75.7118C327.133 75.6411 326.956 75.588 326.708 75.5526L325.187 75.305C324.715 75.2224 324.385 75.0161 324.196 74.6858C324.019 74.3438 323.931 73.7955 323.931 73.0407C323.931 72.0501 324.131 71.372 324.532 71.0064C324.933 70.629 325.541 70.4403 326.354 70.4403C326.673 70.4403 326.997 70.4639 327.327 70.5111C327.669 70.5465 327.941 70.5995 328.141 70.6703V71.484C327.952 71.425 327.681 71.3779 327.327 71.3425C326.985 71.2953 326.643 71.2717 326.301 71.2717C325.83 71.2717 325.47 71.3897 325.222 71.6255C324.986 71.8614 324.868 72.2977 324.868 72.9346C324.868 73.3709 324.892 73.6893 324.939 73.8898C324.986 74.0903 325.063 74.2318 325.169 74.3144C325.275 74.3969 325.44 74.4559 325.665 74.4913L327.133 74.7212C327.475 74.7802 327.734 74.8804 327.911 75.022C328.1 75.1635 328.235 75.3993 328.318 75.7295C328.412 76.0597 328.46 76.5374 328.46 77.1624C328.46 78.0941 328.271 78.7604 327.893 79.1613C327.528 79.5505 326.926 79.7451 326.089 79.7451Z" fill="#999999"/>
</svg>
