<svg width="225" height="51" viewBox="0 0 225 51" fill="none" xmlns="http://www.w3.org/2000/svg">
<path d="M54.0347 8.78267H59.7029C61.0482 8.78267 62.0572 9.04172 62.7298 9.55984C63.4223 10.058 63.8773 10.8053 64.0949 11.8017C64.3323 12.7781 64.451 14.1232 64.451 15.837C64.451 17.4711 64.3422 18.7863 64.1246 19.7827C63.9268 20.7591 63.4816 21.5263 62.7892 22.0843C62.0967 22.6423 61.068 22.9213 59.7029 22.9213H58.1004V29.3479H54.0347V8.78267ZM58.9906 19.2147C59.4259 19.2147 59.7325 19.145 59.9106 19.0055C60.0886 18.866 60.2074 18.577 60.2667 18.1386C60.3458 17.6803 60.3854 16.9131 60.3854 15.837C60.3854 14.7809 60.3557 14.0336 60.2964 13.5952C60.237 13.1568 60.1084 12.8678 59.9106 12.7283C59.7325 12.5888 59.4259 12.5191 58.9906 12.5191H58.1004V19.2147H58.9906Z" fill="#749BBE"/>
<path d="M72.8285 29.3479L71.2853 22.3234H70.0983V29.3479H66.0327V8.78267H71.7898C73.1351 8.78267 74.1441 9.03176 74.8168 9.52995C75.5092 10.0082 75.9742 10.7256 76.2116 11.6821C76.449 12.6187 76.5677 13.904 76.5677 15.5381C76.5677 17.0725 76.4589 18.308 76.2412 19.2446C76.0236 20.1812 75.5983 20.9086 74.9652 21.4267L77.0425 29.3479H72.8285ZM71.1073 18.7066C71.5425 18.7066 71.8492 18.6468 72.0272 18.5272C72.2053 18.3877 72.324 18.1187 72.3834 17.7202C72.4427 17.3017 72.4724 16.5943 72.4724 15.5979C72.4724 14.6214 72.4427 13.9339 72.3834 13.5354C72.324 13.1169 72.2053 12.8479 72.0272 12.7283C71.8492 12.5888 71.5425 12.5191 71.1073 12.5191H70.0983V18.7066H71.1073Z" fill="#749BBE"/>
<path d="M78.4943 29.3479V8.78267H86.6849V12.5191H82.5599V17.0924H86.1804V20.8289H82.5599V25.6115H86.6849V29.3479H78.4943Z" fill="#749BBE"/>
<path d="M90.5071 29.3479L87.7472 8.78267H91.8425L93.534 25.1033H93.8308L95.4036 8.78267H99.4396L96.6797 29.3479H90.5071Z" fill="#749BBE"/>
<path d="M100.867 29.3479V8.78267H104.963V29.3479H100.867Z" fill="#749BBE"/>
<path d="M107.272 8.78267H112.228C113.989 8.78267 115.235 9.09154 115.967 9.7093C116.719 10.3071 117.184 11.2537 117.362 12.549C117.54 13.8443 117.629 16.0164 117.629 19.0653C117.629 22.1142 117.54 24.2863 117.362 25.5816C117.184 26.8769 116.719 27.8334 115.967 28.4511C115.235 29.049 113.989 29.3479 112.228 29.3479H107.272V8.78267ZM112.228 25.6115C112.703 25.6115 113.019 25.5118 113.178 25.3126C113.356 25.1133 113.464 24.5952 113.504 23.7582C113.563 22.9213 113.593 21.3569 113.593 19.0653C113.593 16.7736 113.563 15.2093 113.504 14.3723C113.464 13.5354 113.356 13.0173 113.178 12.818C113.019 12.6187 112.703 12.5191 112.228 12.5191H111.308V25.6115H112.228Z" fill="#749BBE"/>
<path d="M119.618 29.3479V8.78267H127.808V12.5191H123.683V17.0924H127.304V20.8289H123.683V25.6115H127.808V29.3479H119.618ZM119.825 6.92941V6.69028L121.814 3.19299H125.612L127.63 6.69028V6.92941H124.989L123.713 5.04625L122.467 6.92941H119.825Z" fill="#749BBE"/>
<path d="M136.913 29.3479L133.737 19.0354H133.619V29.3479H129.761V8.78267H133.53L136.438 18.1088H136.586V8.78267H140.474V29.3479H136.913Z" fill="#749BBE"/>
<path d="M150.607 29.049C150.271 29.2084 149.835 29.3379 149.301 29.4376C148.787 29.5372 148.292 29.587 147.817 29.587C146.235 29.587 145.067 29.2682 144.316 28.6305C143.564 27.9928 143.069 26.9665 142.832 25.5517C142.594 24.1169 142.476 21.9548 142.476 19.0653C142.476 16.1957 142.604 14.0435 142.861 12.6088C143.119 11.174 143.613 10.1377 144.345 9.50006C145.097 8.86238 146.254 8.54354 147.817 8.54354C148.352 8.54354 148.876 8.59335 149.39 8.69299C149.924 8.7727 150.31 8.87234 150.548 8.9919V12.4294C149.816 12.3298 149.153 12.2799 148.559 12.2799C147.867 12.2799 147.392 12.4095 147.135 12.6685C146.897 12.9276 146.739 13.4856 146.66 14.3424C146.601 15.1794 146.571 16.7537 146.571 19.0653C146.571 21.3769 146.601 22.9611 146.66 23.818C146.739 24.6549 146.897 25.203 147.135 25.462C147.392 25.7211 147.867 25.8506 148.559 25.8506C149.331 25.8506 150.013 25.8008 150.607 25.7011V29.049Z" fill="#749BBE"/>
<path d="M152.395 29.3479V8.78267H156.49V29.3479H152.395Z" fill="#749BBE"/>
<path d="M165.951 29.3479L165.447 25.2528H162.39L161.886 29.3479H157.82L160.877 8.78267H167.02L170.076 29.3479H165.951ZM164.022 12.818H163.815L162.776 21.6359H165.061L164.022 12.818Z" fill="#749BBE"/>
<path d="M175.695 29.3479V8.78267H179.79V29.3479H175.695Z" fill="#749BBE"/>
<path d="M182.1 8.78267H187.056C188.816 8.78267 190.063 9.09154 190.795 9.7093C191.547 10.3071 192.012 11.2537 192.19 12.549C192.368 13.8443 192.457 16.0164 192.457 19.0653C192.457 22.1142 192.368 24.2863 192.19 25.5816C192.012 26.8769 191.547 27.8334 190.795 28.4511C190.063 29.049 188.816 29.3479 187.056 29.3479H182.1V8.78267ZM187.056 25.6115C187.53 25.6115 187.847 25.5118 188.005 25.3126C188.183 25.1133 188.292 24.5952 188.332 23.7582C188.391 22.9213 188.421 21.3569 188.421 19.0653C188.421 16.7736 188.391 15.2093 188.332 14.3723C188.292 13.5354 188.183 13.0173 188.005 12.818C187.847 12.6187 187.53 12.5191 187.056 12.5191H186.136V25.6115H187.056Z" fill="#749BBE"/>
<path d="M194.445 29.3479V8.78267H202.636V12.5191H198.511V17.0924H202.132V20.8289H198.511V25.6115H202.636V29.3479H194.445Z" fill="#749BBE"/>
<path d="M211.741 29.3479L211.236 25.2528H208.179L207.675 29.3479H203.609L206.666 8.78267H212.809L215.866 29.3479H211.741ZM209.812 12.818H209.604L208.565 21.6359H210.85L209.812 12.818Z" fill="#749BBE"/>
<path d="M217.195 29.3479V8.78267H221.261V25.5517H225V29.3479H217.195Z" fill="#749BBE"/>
<path fill-rule="evenodd" clip-rule="evenodd" d="M18.0314 0.28149C17.7107 0.0970249 17.3479 0 16.9787 0C16.6094 0 16.2466 0.0970249 15.926 0.28149L1.06966 8.8324C0.663592 9.06638 0.345658 9.42895 0.165288 9.86373C-0.015082 10.2985 -0.047781 10.7811 0.0722756 11.2366C0.192332 11.692 0.458416 12.0947 0.829157 12.3821C1.1999 12.6695 1.65452 12.8254 2.12233 12.8257V27.7898C1.55946 27.7898 1.01963 28.015 0.621617 28.4159C0.223602 28.8168 0 29.3605 0 29.9275C0 30.4944 0.223602 31.0382 0.621617 31.4391C1.01963 31.84 1.55946 32.0652 2.12233 32.0652H31.835C32.3979 32.0652 32.9377 31.84 33.3357 31.4391C33.7338 31.0382 33.9574 30.4944 33.9574 29.9275C33.9574 29.3605 33.7338 28.8168 33.3357 28.4159C32.9377 28.015 32.3979 27.7898 31.835 27.7898V12.8257C32.3028 12.8254 32.7575 12.6695 33.1282 12.3821C33.4989 12.0947 33.765 11.692 33.8851 11.2366C34.0051 10.7811 33.9724 10.2985 33.7921 9.86373C33.6117 9.42895 33.2938 9.06638 32.8877 8.8324L18.0314 0.28149ZM8.48934 14.9634C7.92646 14.9634 7.38664 15.1886 6.98862 15.5895C6.59061 15.9904 6.367 16.5342 6.367 17.1011V23.5143C6.367 24.0813 6.59061 24.625 6.98862 25.0259C7.38664 25.4268 7.92646 25.652 8.48934 25.652C9.05222 25.652 9.59204 25.4268 9.99006 25.0259C10.3881 24.625 10.6117 24.0813 10.6117 23.5143V17.1011C10.6117 16.5342 10.3881 15.9904 9.99006 15.5895C9.59204 15.1886 9.05222 14.9634 8.48934 14.9634ZM14.8563 17.1011C14.8563 16.5342 15.0799 15.9904 15.478 15.5895C15.876 15.1886 16.4158 14.9634 16.9787 14.9634C17.5416 14.9634 18.0814 15.1886 18.4794 15.5895C18.8774 15.9904 19.101 16.5342 19.101 17.1011V23.5143C19.101 24.0813 18.8774 24.625 18.4794 25.0259C18.0814 25.4268 17.5416 25.652 16.9787 25.652C16.4158 25.652 15.876 25.4268 15.478 25.0259C15.0799 24.625 14.8563 24.0813 14.8563 23.5143V17.1011ZM25.468 14.9634C24.9051 14.9634 24.3653 15.1886 23.9673 15.5895C23.5693 15.9904 23.3457 16.5342 23.3457 17.1011V23.5143C23.3457 24.0813 23.5693 24.625 23.9673 25.0259C24.3653 25.4268 24.9051 25.652 25.468 25.652C26.0309 25.652 26.5707 25.4268 26.9687 25.0259C27.3667 24.625 27.5903 24.0813 27.5903 23.5143V17.1011C27.5903 16.5342 27.3667 15.9904 26.9687 15.5895C26.5707 15.1886 26.0309 14.9634 25.468 14.9634Z" fill="#749BBE"/>
<path d="M44.2443 8.69568H43.7048V29.3479H44.2443V8.69568Z" fill="#749BBE"/>
<path d="M27.1485 49C26.8536 49 26.609 48.942 26.4147 48.826C26.2205 48.7029 26.0838 48.471 26.0047 48.1304H25.9507L25.9075 48.913H25.4219V40.8369H25.9939V44.0652H26.0478C26.1198 43.7898 26.2421 43.5905 26.4147 43.4673C26.5946 43.3442 26.8392 43.2826 27.1485 43.2826C27.5442 43.2826 27.8392 43.3623 28.0334 43.5217C28.2277 43.6811 28.3608 43.9601 28.4327 44.3587C28.5047 44.75 28.5406 45.3442 28.5406 46.1413C28.5406 46.9456 28.5011 47.5471 28.4219 47.9456C28.35 48.3369 28.2169 48.6123 28.0226 48.7717C27.8356 48.9239 27.5442 49 27.1485 49ZM26.9759 48.4782C27.2852 48.4782 27.5047 48.4275 27.6342 48.326C27.7636 48.2173 27.85 48.0072 27.8931 47.6956C27.9435 47.384 27.9687 46.8659 27.9687 46.1413C27.9687 45.4166 27.9435 44.8985 27.8931 44.5869C27.85 44.2753 27.7636 44.0688 27.6342 43.9673C27.5047 43.8587 27.2852 43.8043 26.9759 43.8043C26.7241 43.8043 26.5262 43.8623 26.3824 43.9782C26.2457 44.0942 26.1521 44.2826 26.1018 44.5434C26.0298 44.9058 25.9939 45.4384 25.9939 46.1413C25.9939 46.5108 25.9975 46.8152 26.0047 47.0543C26.0191 47.2934 26.0478 47.5144 26.091 47.7173C26.1414 47.9855 26.2385 48.1811 26.3824 48.3043C26.5262 48.4202 26.7241 48.4782 26.9759 48.4782Z" fill="#749BBE"/>
<path d="M34.0956 46.326H31.6136C31.6136 46.971 31.6352 47.4384 31.6784 47.7282C31.7287 48.0108 31.833 48.2101 31.9913 48.326C32.1496 48.4347 32.4086 48.4891 32.7683 48.4891C32.9481 48.4891 33.1532 48.4782 33.3834 48.4565C33.6208 48.4275 33.8186 48.3949 33.9769 48.3587V48.8587C33.833 48.8949 33.6388 48.9275 33.3942 48.9565C33.1496 48.9855 32.9122 49 32.682 49C32.1927 49 31.833 48.9166 31.6028 48.75C31.3798 48.5833 31.2287 48.3079 31.1496 47.9239C31.0776 47.5398 31.0417 46.9492 31.0417 46.1521C31.0417 45.3405 31.0705 44.75 31.128 44.3804C31.1856 44.0036 31.3258 43.7282 31.5489 43.5543C31.7791 43.3731 32.146 43.2826 32.6496 43.2826C33.11 43.2826 33.4373 43.3659 33.6316 43.5326C33.833 43.6992 33.9589 43.9673 34.0093 44.3369C34.0668 44.7065 34.0956 45.3043 34.0956 46.1304V46.326ZM32.6388 43.7934C32.3222 43.7934 32.092 43.8405 31.9481 43.9347C31.8115 44.0289 31.7215 44.2137 31.6784 44.4891C31.6352 44.7644 31.6136 45.2246 31.6136 45.8695H33.5453V45.6739C33.5453 45.1014 33.5201 44.6847 33.4697 44.4239C33.4194 44.163 33.333 43.9927 33.2107 43.913C33.0884 43.8333 32.8978 43.7934 32.6388 43.7934Z" fill="#749BBE"/>
<path d="M39.2024 45.5652C39.2024 45.0362 39.1808 44.6521 39.1377 44.413C39.0945 44.1666 39.0118 44.0036 38.8895 43.9239C38.7672 43.8442 38.5729 43.8043 38.3067 43.8043C37.9974 43.8043 37.7708 43.8949 37.6269 44.076C37.4902 44.25 37.4039 44.4818 37.3679 44.7717C37.3391 45.0616 37.3247 45.4927 37.3247 46.0652V48.913H36.7528V43.3695H37.2384L37.2816 44.1521H37.3355C37.4003 43.884 37.5226 43.6739 37.7024 43.5217C37.8895 43.3623 38.1629 43.2826 38.5226 43.2826C38.8823 43.2826 39.1485 43.3514 39.3211 43.4891C39.501 43.6195 39.6197 43.8297 39.6772 44.1195C39.742 44.4094 39.7744 44.8297 39.7744 45.3804V48.913H39.2024V45.5652Z" fill="#749BBE"/>
<path d="M45.437 46.326H42.955C42.955 46.971 42.9766 47.4384 43.0198 47.7282C43.0701 48.0108 43.1744 48.2101 43.3327 48.326C43.491 48.4347 43.75 48.4891 44.1097 48.4891C44.2895 48.4891 44.4946 48.4782 44.7248 48.4565C44.9622 48.4275 45.16 48.3949 45.3183 48.3587V48.8587C45.1744 48.8949 44.9802 48.9275 44.7356 48.9565C44.491 48.9855 44.2536 49 44.0234 49C43.5341 49 43.1744 48.9166 42.9442 48.75C42.7212 48.5833 42.5701 48.3079 42.491 47.9239C42.4191 47.5398 42.3831 46.9492 42.3831 46.1521C42.3831 45.3405 42.4119 44.75 42.4694 44.3804C42.527 44.0036 42.6672 43.7282 42.8903 43.5543C43.1205 43.3731 43.4874 43.2826 43.991 43.2826C44.4514 43.2826 44.7787 43.3659 44.973 43.5326C45.1744 43.6992 45.3003 43.9673 45.3507 44.3369C45.4082 44.7065 45.437 45.3043 45.437 46.1304V46.326ZM43.9802 43.7934C43.6636 43.7934 43.4334 43.8405 43.2895 43.9347C43.1529 44.0289 43.0629 44.2137 43.0198 44.4891C42.9766 44.7644 42.955 45.2246 42.955 45.8695H44.8867V45.6739C44.8867 45.1014 44.8615 44.6847 44.8111 44.4239C44.7608 44.163 44.6744 43.9927 44.5521 43.913C44.4298 43.8333 44.2392 43.7934 43.9802 43.7934Z" fill="#749BBE"/>
<path d="M48.364 43.8804H47.6949V43.3695H48.364V42.3152C48.364 41.8731 48.4107 41.5507 48.5043 41.3478C48.5978 41.1376 48.7381 41 48.9251 40.9347C49.1194 40.8695 49.4035 40.8369 49.7776 40.8369V41.2934C49.5402 41.2934 49.364 41.3188 49.2489 41.3695C49.1338 41.413 49.051 41.4963 49.0007 41.6195C48.9575 41.7427 48.9359 41.9347 48.9359 42.1956V43.3695H49.7776V43.8804H48.9359V48.913H48.364V43.8804Z" fill="#749BBE"/>
<path d="M52.2 48.913V43.3695H52.7719V48.913H52.2ZM52.2 42.3587V42.3043L52.5561 40.8369H53.1604V40.8913L52.6208 42.3587H52.2Z" fill="#749BBE"/>
<path d="M57.9095 48.8695C57.7872 48.9058 57.6361 48.9347 57.4562 48.9565C57.2764 48.9855 57.1073 49 56.9491 49C56.4958 49 56.1613 48.9094 55.9455 48.7282C55.7296 48.5398 55.5894 48.2536 55.5246 47.8695C55.4599 47.4855 55.4275 46.913 55.4275 46.1521C55.4275 45.3695 55.4671 44.7789 55.5462 44.3804C55.6325 43.9818 55.78 43.6992 55.9886 43.5326C56.1973 43.3659 56.5066 43.2826 56.9167 43.2826C57.2692 43.2826 57.5893 43.3224 57.8771 43.4021V43.9021C57.6109 43.8297 57.3304 43.7934 57.0354 43.7934C56.7332 43.7934 56.5102 43.855 56.3663 43.9782C56.2224 44.1014 56.1253 44.3224 56.075 44.6413C56.0246 44.9601 55.9994 45.4565 55.9994 46.1304C55.9994 46.8333 56.0246 47.3442 56.075 47.663C56.1253 47.9818 56.2224 48.1992 56.3663 48.3152C56.5102 48.4311 56.7404 48.4891 57.057 48.4891C57.2009 48.4891 57.3519 48.4782 57.5102 48.4565C57.6685 48.4347 57.8016 48.4058 57.9095 48.3695V48.8695Z" fill="#749BBE"/>
<path d="M60.4004 41.6304V40.8369H61.0047V41.6304H60.4004ZM60.422 48.913V43.3695H60.9939V48.913H60.422Z" fill="#749BBE"/>
<path d="M65.2359 49C64.7466 49 64.3905 48.9275 64.1675 48.7826C63.9517 48.6304 63.8114 48.3659 63.7467 47.9891C63.6819 47.6123 63.6495 47 63.6495 46.1521C63.6495 45.3043 63.6819 44.692 63.7467 44.3152C63.8114 43.9311 63.9517 43.663 64.1675 43.5108C64.3905 43.3587 64.7466 43.2826 65.2359 43.2826C65.7251 43.2826 66.0776 43.3587 66.2934 43.5108C66.5092 43.663 66.6495 43.9311 66.7143 44.3152C66.7862 44.692 66.8222 45.3043 66.8222 46.1521C66.8222 46.9927 66.7862 47.605 66.7143 47.9891C66.6495 48.3659 66.5092 48.6304 66.2934 48.7826C66.0776 48.9275 65.7251 49 65.2359 49ZM65.2359 48.4891C65.5596 48.4891 65.7898 48.4347 65.9265 48.326C66.0632 48.2101 66.1495 48.0036 66.1855 47.7065C66.2286 47.4021 66.2502 46.884 66.2502 46.1521C66.2502 45.413 66.2286 44.8913 66.1855 44.5869C66.1495 44.2826 66.0632 44.076 65.9265 43.9673C65.7898 43.8514 65.5596 43.7934 65.2359 43.7934C64.9049 43.7934 64.6711 43.8514 64.5344 43.9673C64.3977 44.076 64.3114 44.2826 64.2754 44.5869C64.2395 44.8913 64.2215 45.413 64.2215 46.1521C64.2215 46.8913 64.2395 47.4094 64.2754 47.7065C64.3114 48.0036 64.3977 48.2101 64.5344 48.326C64.6711 48.4347 64.9049 48.4891 65.2359 48.4891Z" fill="#749BBE"/>
<path d="M70.5341 49C70.3327 49 70.1169 48.9855 69.8866 48.9565C69.6564 48.9347 69.4694 48.9058 69.3255 48.8695V48.3695C69.4478 48.4058 69.6241 48.4347 69.8543 48.4565C70.0845 48.4782 70.3075 48.4891 70.5233 48.4891C70.8687 48.4891 71.1025 48.4021 71.2248 48.2282C71.3543 48.0471 71.419 47.7826 71.419 47.4347C71.419 47.1376 71.4046 46.9239 71.3758 46.7934C71.3471 46.6558 71.3003 46.5652 71.2356 46.5217C71.1708 46.4782 71.0629 46.4456 70.9118 46.4239L69.9838 46.2717C69.696 46.221 69.4946 46.0942 69.3795 45.8913C69.2715 45.6811 69.2176 45.3442 69.2176 44.8804C69.2176 44.2717 69.3399 43.855 69.5845 43.6304C69.8291 43.3985 70.1996 43.2826 70.696 43.2826C70.8902 43.2826 71.0881 43.2971 71.2895 43.326C71.4981 43.3478 71.6636 43.3804 71.7859 43.4239V43.9239C71.6708 43.8876 71.5053 43.8587 71.2895 43.8369C71.0809 43.8079 70.8722 43.7934 70.6636 43.7934C70.3759 43.7934 70.1564 43.8659 70.0054 44.0108C69.8615 44.1558 69.7895 44.4239 69.7895 44.8152C69.7895 45.0833 69.8039 45.2789 69.8327 45.4021C69.8615 45.5253 69.9082 45.6123 69.973 45.663C70.0377 45.7137 70.1384 45.75 70.2751 45.7717L71.1708 45.913C71.3794 45.9492 71.5377 46.0108 71.6456 46.0978C71.7607 46.1847 71.8435 46.3297 71.8938 46.5326C71.9514 46.7355 71.9802 47.0289 71.9802 47.413C71.9802 47.9855 71.8651 48.3949 71.6348 48.6413C71.4118 48.8804 71.0449 49 70.5341 49Z" fill="#749BBE"/>
<path d="M80.8228 46.326H78.3408C78.3408 46.971 78.3624 47.4384 78.4055 47.7282C78.4559 48.0108 78.5602 48.2101 78.7185 48.326C78.8768 48.4347 79.1357 48.4891 79.4955 48.4891C79.6753 48.4891 79.8803 48.4782 80.1106 48.4565C80.348 48.4275 80.5458 48.3949 80.7041 48.3587V48.8587C80.5602 48.8949 80.366 48.9275 80.1214 48.9565C79.8768 48.9855 79.6393 49 79.4091 49C78.9199 49 78.5602 48.9166 78.33 48.75C78.107 48.5833 77.9559 48.3079 77.8768 47.9239C77.8048 47.5398 77.7688 46.9492 77.7688 46.1521C77.7688 45.3405 77.7976 44.75 77.8552 44.3804C77.9127 44.0036 78.053 43.7282 78.276 43.5543C78.5063 43.3731 78.8732 43.2826 79.3768 43.2826C79.8372 43.2826 80.1645 43.3659 80.3588 43.5326C80.5602 43.6992 80.6861 43.9673 80.7365 44.3369C80.794 44.7065 80.8228 45.3043 80.8228 46.1304V46.326ZM79.366 43.7934C79.0494 43.7934 78.8192 43.8405 78.6753 43.9347C78.5386 44.0289 78.4487 44.2137 78.4055 44.4891C78.3624 44.7644 78.3408 45.2246 78.3408 45.8695H80.2724V45.6739C80.2724 45.1014 80.2472 44.6847 80.1969 44.4239C80.1465 44.163 80.0602 43.9927 79.9379 43.913C79.8156 43.8333 79.625 43.7934 79.366 43.7934Z" fill="#749BBE"/>
<path d="M86.8691 43.3695H87.3547L87.3979 44.413H87.4519C87.5382 43.9782 87.6821 43.6811 87.8835 43.5217C88.0921 43.3623 88.3655 43.2826 88.7036 43.2826V43.8913C88.2216 43.8913 87.8907 44.0688 87.7108 44.4239C87.531 44.7717 87.4411 45.3369 87.4411 46.1195V48.913H86.8691V43.3695Z" fill="#749BBE"/>
<path d="M93.9093 46.326H91.4273C91.4273 46.971 91.4489 47.4384 91.4921 47.7282C91.5425 48.0108 91.6468 48.2101 91.805 48.326C91.9633 48.4347 92.2223 48.4891 92.582 48.4891C92.7619 48.4891 92.9669 48.4782 93.1971 48.4565C93.4345 48.4275 93.6324 48.3949 93.7906 48.3587V48.8587C93.6468 48.8949 93.4525 48.9275 93.2079 48.9565C92.9633 48.9855 92.7259 49 92.4957 49C92.0065 49 91.6468 48.9166 91.4166 48.75C91.1935 48.5833 91.0425 48.3079 90.9633 47.9239C90.8914 47.5398 90.8554 46.9492 90.8554 46.1521C90.8554 45.3405 90.8842 44.75 90.9417 44.3804C90.9993 44.0036 91.1396 43.7282 91.3626 43.5543C91.5928 43.3731 91.9597 43.2826 92.4633 43.2826C92.9237 43.2826 93.2511 43.3659 93.4453 43.5326C93.6468 43.6992 93.7727 43.9673 93.823 44.3369C93.8806 44.7065 93.9093 45.3043 93.9093 46.1304V46.326ZM92.4525 43.7934C92.136 43.7934 91.9058 43.8405 91.7619 43.9347C91.6252 44.0289 91.5353 44.2137 91.4921 44.4891C91.4489 44.7644 91.4273 45.2246 91.4273 45.8695H93.359V45.6739C93.359 45.1014 93.3338 44.6847 93.2835 44.4239C93.2331 44.163 93.1468 43.9927 93.0245 43.913C92.9022 43.8333 92.7115 43.7934 92.4525 43.7934Z" fill="#749BBE"/>
<path d="M97.4 48.913L96.0511 43.3695H96.6338L97.7022 48H97.7561L98.8029 43.3695H99.3856L98.0367 48.913H97.4Z" fill="#749BBE"/>
<path d="M101.757 41.6304V40.8369H102.362V41.6304H101.757ZM101.779 48.913V43.3695H102.351V48.913H101.779Z" fill="#749BBE"/>
<path d="M106.215 49C106.014 49 105.798 48.9855 105.567 48.9565C105.337 48.9347 105.15 48.9058 105.006 48.8695V48.3695C105.129 48.4058 105.305 48.4347 105.535 48.4565C105.765 48.4782 105.988 48.4891 106.204 48.4891C106.549 48.4891 106.783 48.4021 106.906 48.2282C107.035 48.0471 107.1 47.7826 107.1 47.4347C107.1 47.1376 107.085 46.9239 107.057 46.7934C107.028 46.6558 106.981 46.5652 106.916 46.5217C106.852 46.4782 106.744 46.4456 106.593 46.4239L105.665 46.2717C105.377 46.221 105.175 46.0942 105.06 45.8913C104.952 45.6811 104.898 45.3442 104.898 44.8804C104.898 44.2717 105.021 43.855 105.265 43.6304C105.51 43.3985 105.88 43.2826 106.377 43.2826C106.571 43.2826 106.769 43.2971 106.97 43.326C107.179 43.3478 107.344 43.3804 107.467 43.4239V43.9239C107.352 43.8876 107.186 43.8587 106.97 43.8369C106.762 43.8079 106.553 43.7934 106.344 43.7934C106.057 43.7934 105.837 43.8659 105.686 44.0108C105.542 44.1558 105.47 44.4239 105.47 44.8152C105.47 45.0833 105.485 45.2789 105.514 45.4021C105.542 45.5253 105.589 45.6123 105.654 45.663C105.719 45.7137 105.819 45.75 105.956 45.7717L106.852 45.913C107.06 45.9492 107.219 46.0108 107.326 46.0978C107.442 46.1847 107.524 46.3297 107.575 46.5326C107.632 46.7355 107.661 47.0289 107.661 47.413C107.661 47.9855 107.546 48.3949 107.316 48.6413C107.093 48.8804 106.726 49 106.215 49Z" fill="#749BBE"/>
<path d="M111.647 49C111.158 49 110.802 48.9275 110.579 48.7826C110.363 48.6304 110.222 48.3659 110.158 47.9891C110.093 47.6123 110.061 47 110.061 46.1521C110.061 45.3043 110.093 44.692 110.158 44.3152C110.222 43.9311 110.363 43.663 110.579 43.5108C110.802 43.3587 111.158 43.2826 111.647 43.2826C112.136 43.2826 112.489 43.3587 112.704 43.5108C112.92 43.663 113.061 43.9311 113.125 44.3152C113.197 44.692 113.233 45.3043 113.233 46.1521C113.233 46.9927 113.197 47.605 113.125 47.9891C113.061 48.3659 112.92 48.6304 112.704 48.7826C112.489 48.9275 112.136 49 111.647 49ZM111.647 48.4891C111.971 48.4891 112.201 48.4347 112.338 48.326C112.474 48.2101 112.561 48.0036 112.597 47.7065C112.64 47.4021 112.661 46.884 112.661 46.1521C112.661 45.413 112.64 44.8913 112.597 44.5869C112.561 44.2826 112.474 44.076 112.338 43.9673C112.201 43.8514 111.971 43.7934 111.647 43.7934C111.316 43.7934 111.082 43.8514 110.945 43.9673C110.809 44.076 110.722 44.2826 110.686 44.5869C110.65 44.8913 110.632 45.413 110.632 46.1521C110.632 46.8913 110.65 47.4094 110.686 47.7065C110.722 48.0036 110.809 48.2101 110.945 48.326C111.082 48.4347 111.316 48.4891 111.647 48.4891ZM112.931 40.8369C112.931 41.25 112.895 41.5398 112.823 41.7065C112.751 41.8659 112.6 41.9456 112.37 41.9456C112.255 41.9456 112.143 41.9239 112.035 41.8804C111.927 41.8369 111.784 41.7717 111.604 41.6847C111.474 41.605 111.359 41.5471 111.258 41.5108C111.165 41.4673 111.071 41.4456 110.978 41.4456C110.891 41.4456 110.834 41.4891 110.805 41.576C110.784 41.6558 110.773 41.8188 110.773 42.0652H110.373C110.373 41.6449 110.409 41.355 110.481 41.1956C110.553 41.0362 110.704 40.9565 110.935 40.9565C111.057 40.9565 111.179 40.9818 111.302 41.0326C111.424 41.076 111.568 41.1449 111.733 41.2391C111.87 41.3116 111.981 41.3659 112.068 41.4021C112.154 41.4384 112.237 41.4565 112.316 41.4565C112.402 41.4565 112.46 41.413 112.489 41.326C112.517 41.2318 112.532 41.0688 112.532 40.8369H112.931Z" fill="#749BBE"/>
<path d="M118.79 46.326H116.308C116.308 46.971 116.33 47.4384 116.373 47.7282C116.424 48.0108 116.528 48.2101 116.686 48.326C116.844 48.4347 117.103 48.4891 117.463 48.4891C117.643 48.4891 117.848 48.4782 118.078 48.4565C118.316 48.4275 118.513 48.3949 118.672 48.3587V48.8587C118.528 48.8949 118.334 48.9275 118.089 48.9565C117.844 48.9855 117.607 49 117.377 49C116.888 49 116.528 48.9166 116.298 48.75C116.075 48.5833 115.924 48.3079 115.844 47.9239C115.772 47.5398 115.737 46.9492 115.737 46.1521C115.737 45.3405 115.765 44.75 115.823 44.3804C115.88 44.0036 116.021 43.7282 116.244 43.5543C116.474 43.3731 116.841 43.2826 117.344 43.2826C117.805 43.2826 118.132 43.3659 118.326 43.5326C118.528 43.6992 118.654 43.9673 118.704 44.3369C118.762 44.7065 118.79 45.3043 118.79 46.1304V46.326ZM117.334 43.7934C117.017 43.7934 116.787 43.8405 116.643 43.9347C116.506 44.0289 116.416 44.2137 116.373 44.4891C116.33 44.7644 116.308 45.2246 116.308 45.8695H118.24V45.6739C118.24 45.1014 118.215 44.6847 118.165 44.4239C118.114 44.163 118.028 43.9927 117.906 43.913C117.783 43.8333 117.593 43.7934 117.334 43.7934Z" fill="#749BBE"/>
<path d="M122.505 49C122.304 49 122.088 48.9855 121.858 48.9565C121.628 48.9347 121.44 48.9058 121.297 48.8695V48.3695C121.419 48.4058 121.595 48.4347 121.825 48.4565C122.056 48.4782 122.279 48.4891 122.494 48.4891C122.84 48.4891 123.074 48.4021 123.196 48.2282C123.325 48.0471 123.39 47.7826 123.39 47.4347C123.39 47.1376 123.376 46.9239 123.347 46.7934C123.318 46.6558 123.271 46.5652 123.207 46.5217C123.142 46.4782 123.034 46.4456 122.883 46.4239L121.955 46.2717C121.667 46.221 121.466 46.0942 121.351 45.8913C121.243 45.6811 121.189 45.3442 121.189 44.8804C121.189 44.2717 121.311 43.855 121.556 43.6304C121.8 43.3985 122.171 43.2826 122.667 43.2826C122.861 43.2826 123.059 43.2971 123.261 43.326C123.469 43.3478 123.635 43.3804 123.757 43.4239V43.9239C123.642 43.8876 123.476 43.8587 123.261 43.8369C123.052 43.8079 122.843 43.7934 122.635 43.7934C122.347 43.7934 122.128 43.8659 121.976 44.0108C121.833 44.1558 121.761 44.4239 121.761 44.8152C121.761 45.0833 121.775 45.2789 121.804 45.4021C121.833 45.5253 121.879 45.6123 121.944 45.663C122.009 45.7137 122.11 45.75 122.246 45.7717L123.142 45.913C123.351 45.9492 123.509 46.0108 123.617 46.0978C123.732 46.1847 123.815 46.3297 123.865 46.5326C123.922 46.7355 123.951 47.0289 123.951 47.413C123.951 47.9855 123.836 48.3949 123.606 48.6413C123.383 48.8804 123.016 49 122.505 49Z" fill="#749BBE"/>
<path d="M129.891 43.3695H130.377L130.42 44.1521H130.474C130.553 43.8116 130.69 43.5833 130.884 43.4673C131.078 43.3442 131.323 43.2826 131.618 43.2826C132.013 43.2826 132.305 43.3623 132.492 43.5217C132.686 43.6739 132.819 43.9492 132.891 44.3478C132.97 44.7391 133.01 45.3369 133.01 46.1413C133.01 46.9384 132.974 47.5362 132.902 47.9347C132.83 48.326 132.697 48.6014 132.502 48.7608C132.308 48.9202 132.013 49 131.618 49C131.308 49 131.064 48.9384 130.884 48.8152C130.711 48.692 130.589 48.4927 130.517 48.2173H130.463V51H129.891V43.3695ZM131.445 48.4782C131.754 48.4782 131.974 48.4275 132.103 48.326C132.233 48.2173 132.319 48.0072 132.362 47.6956C132.413 47.384 132.438 46.8659 132.438 46.1413C132.438 45.4166 132.413 44.8985 132.362 44.5869C132.319 44.2753 132.233 44.0688 132.103 43.9673C131.974 43.8587 131.754 43.8043 131.445 43.8043C131.186 43.8043 130.985 43.8659 130.841 43.9891C130.697 44.105 130.6 44.3043 130.549 44.5869C130.492 44.8985 130.463 45.4166 130.463 46.1413C130.463 46.8804 130.488 47.3659 130.538 47.5978C130.603 47.9239 130.704 48.1521 130.841 48.2826C130.985 48.413 131.186 48.4782 131.445 48.4782Z" fill="#749BBE"/>
<path d="M135.662 43.3695H136.147L136.191 44.413H136.245C136.331 43.9782 136.475 43.6811 136.676 43.5217C136.885 43.3623 137.158 43.2826 137.496 43.2826V43.8913C137.014 43.8913 136.683 44.0688 136.504 44.4239C136.324 44.7717 136.234 45.3369 136.234 46.1195V48.913H135.662V43.3695Z" fill="#749BBE"/>
<path d="M142.702 46.326H140.22C140.22 46.971 140.242 47.4384 140.285 47.7282C140.335 48.0108 140.439 48.2101 140.598 48.326C140.756 48.4347 141.015 48.4891 141.375 48.4891C141.555 48.4891 141.76 48.4782 141.99 48.4565C142.227 48.4275 142.425 48.3949 142.583 48.3587V48.8587C142.439 48.8949 142.245 48.9275 142.001 48.9565C141.756 48.9855 141.519 49 141.288 49C140.799 49 140.439 48.9166 140.209 48.75C139.986 48.5833 139.835 48.3079 139.756 47.9239C139.684 47.5398 139.648 46.9492 139.648 46.1521C139.648 45.3405 139.677 44.75 139.734 44.3804C139.792 44.0036 139.932 43.7282 140.155 43.5543C140.386 43.3731 140.752 43.2826 141.256 43.2826C141.716 43.2826 142.044 43.3659 142.238 43.5326C142.439 43.6992 142.565 43.9673 142.616 44.3369C142.673 44.7065 142.702 45.3043 142.702 46.1304V46.326ZM141.245 43.7934C140.929 43.7934 140.698 43.8405 140.555 43.9347C140.418 44.0289 140.328 44.2137 140.285 44.4891C140.242 44.7644 140.22 45.2246 140.22 45.8695H142.152V45.6739C142.152 45.1014 142.127 44.6847 142.076 44.4239C142.026 44.163 141.939 43.9927 141.817 43.913C141.695 43.8333 141.504 43.7934 141.245 43.7934Z" fill="#749BBE"/>
<path d="M146.193 48.913L144.844 43.3695H145.427L146.495 48H146.549L147.596 43.3695H148.178L146.829 48.913H146.193Z" fill="#749BBE"/>
<path d="M150.55 41.6304V40.8369H151.154V41.6304H150.55ZM150.572 48.913V43.3695H151.143V48.913H150.572Z" fill="#749BBE"/>
<path d="M155.202 49C154.806 49 154.511 48.9239 154.317 48.7717C154.123 48.6123 153.986 48.3333 153.907 47.9347C153.835 47.5362 153.799 46.9384 153.799 46.1413C153.799 45.3442 153.835 44.75 153.907 44.3587C153.979 43.9601 154.112 43.6811 154.306 43.5217C154.508 43.3623 154.806 43.2826 155.202 43.2826C155.511 43.2826 155.752 43.3442 155.925 43.4673C156.105 43.5905 156.231 43.7898 156.303 44.0652H156.357V40.8369H156.929V48.913H156.432L156.389 48.1304H156.335C156.263 48.471 156.126 48.7029 155.925 48.826C155.731 48.942 155.49 49 155.202 49ZM155.364 48.4782C155.623 48.4782 155.824 48.4202 155.968 48.3043C156.112 48.1884 156.209 47.9963 156.259 47.7282C156.303 47.5036 156.328 47.2681 156.335 47.0217C156.349 46.7681 156.357 46.4311 156.357 46.0108C156.357 45.4166 156.328 44.9601 156.27 44.6413C156.206 44.3369 156.101 44.1231 155.957 44C155.813 43.8695 155.605 43.8043 155.331 43.8043C155.036 43.8043 154.824 43.8587 154.695 43.9673C154.572 44.0688 154.486 44.2753 154.436 44.5869C154.393 44.8985 154.371 45.4166 154.371 46.1413C154.371 46.8659 154.393 47.384 154.436 47.6956C154.486 48.0072 154.576 48.2173 154.706 48.326C154.842 48.4275 155.062 48.4782 155.364 48.4782Z" fill="#749BBE"/>
<path d="M162.624 46.326H160.142C160.142 46.971 160.163 47.4384 160.207 47.7282C160.257 48.0108 160.361 48.2101 160.519 48.326C160.678 48.4347 160.937 48.4891 161.296 48.4891C161.476 48.4891 161.681 48.4782 161.912 48.4565C162.149 48.4275 162.347 48.3949 162.505 48.3587V48.8587C162.361 48.8949 162.167 48.9275 161.922 48.9565C161.678 48.9855 161.44 49 161.21 49C160.721 49 160.361 48.9166 160.131 48.75C159.908 48.5833 159.757 48.3079 159.678 47.9239C159.606 47.5398 159.57 46.9492 159.57 46.1521C159.57 45.3405 159.599 44.75 159.656 44.3804C159.714 44.0036 159.854 43.7282 160.077 43.5543C160.307 43.3731 160.674 43.2826 161.178 43.2826C161.638 43.2826 161.966 43.3659 162.16 43.5326C162.361 43.6992 162.487 43.9673 162.537 44.3369C162.595 44.7065 162.624 45.3043 162.624 46.1304V46.326ZM161.167 43.7934C160.85 43.7934 160.62 43.8405 160.476 43.9347C160.34 44.0289 160.25 44.2137 160.207 44.4891C160.163 44.7644 160.142 45.2246 160.142 45.8695H162.073V45.6739C162.073 45.1014 162.048 44.6847 161.998 44.4239C161.948 44.163 161.861 43.9927 161.739 43.913C161.617 43.8333 161.426 43.7934 161.167 43.7934Z" fill="#749BBE"/>
<path d="M167.731 45.5652C167.731 45.0362 167.709 44.6521 167.666 44.413C167.623 44.1666 167.54 44.0036 167.418 43.9239C167.295 43.8442 167.101 43.8043 166.835 43.8043C166.526 43.8043 166.299 43.8949 166.155 44.076C166.018 44.25 165.932 44.4818 165.896 44.7717C165.867 45.0616 165.853 45.4927 165.853 46.0652V48.913H165.281V43.3695H165.767L165.81 44.1521H165.864C165.928 43.884 166.051 43.6739 166.231 43.5217C166.418 43.3623 166.691 43.2826 167.051 43.2826C167.41 43.2826 167.677 43.3514 167.849 43.4891C168.029 43.6195 168.148 43.8297 168.205 44.1195C168.27 44.4094 168.303 44.8297 168.303 45.3804V48.913H167.731V45.5652Z" fill="#749BBE"/>
<path d="M173.393 48.8695C173.271 48.9058 173.12 48.9347 172.94 48.9565C172.76 48.9855 172.591 49 172.433 49C171.98 49 171.645 48.9094 171.429 48.7282C171.213 48.5398 171.073 48.2536 171.008 47.8695C170.944 47.4855 170.911 46.913 170.911 46.1521C170.911 45.3695 170.951 44.7789 171.03 44.3804C171.116 43.9818 171.264 43.6992 171.472 43.5326C171.681 43.3659 171.99 43.2826 172.4 43.2826C172.753 43.2826 173.073 43.3224 173.361 43.4021V43.9021C173.095 43.8297 172.814 43.7934 172.519 43.7934C172.217 43.7934 171.994 43.855 171.85 43.9782C171.706 44.1014 171.609 44.3224 171.559 44.6413C171.508 44.9601 171.483 45.4565 171.483 46.1304C171.483 46.8333 171.508 47.3442 171.559 47.663C171.609 47.9818 171.706 48.1992 171.85 48.3152C171.994 48.4311 172.224 48.4891 172.541 48.4891C172.685 48.4891 172.836 48.4782 172.994 48.4565C173.152 48.4347 173.285 48.4058 173.393 48.3695V48.8695Z" fill="#749BBE"/>
<path d="M175.884 41.6304V40.8369H176.488V41.6304H175.884ZM175.906 48.913V43.3695H176.478V48.913H175.906Z" fill="#749BBE"/>
<path d="M180.277 49C179.961 49 179.709 48.9565 179.522 48.8695C179.342 48.7753 179.205 48.6123 179.112 48.3804C179.025 48.1485 178.982 47.8188 178.982 47.3913C178.982 46.9782 179.018 46.6594 179.09 46.4347C179.169 46.2029 179.295 46.0398 179.468 45.9456C179.64 45.8442 179.889 45.7934 180.212 45.7934C180.443 45.7934 180.856 45.8116 181.453 45.8478V45.3913C181.453 44.8985 181.425 44.5434 181.367 44.326C181.317 44.1087 181.22 43.9673 181.076 43.9021C180.932 43.8297 180.691 43.7934 180.353 43.7934C180.18 43.7934 179.982 43.8079 179.759 43.8369C179.543 43.8587 179.36 43.884 179.209 43.913V43.413C179.597 43.326 180.029 43.2826 180.504 43.2826C180.921 43.2826 181.234 43.3405 181.443 43.4565C181.658 43.5724 181.81 43.7789 181.896 44.076C181.982 44.3659 182.025 44.7934 182.025 45.3587V48.913H181.529L181.486 48.1304H181.432C181.36 48.471 181.22 48.7029 181.011 48.826C180.81 48.942 180.565 49 180.277 49ZM180.385 48.4782C180.637 48.4782 180.838 48.442 180.989 48.3695C181.148 48.2971 181.259 48.1413 181.324 47.9021C181.41 47.576 181.453 47.1666 181.453 46.6739V46.25H180.331C180.108 46.25 179.943 46.2789 179.835 46.3369C179.727 46.3876 179.651 46.4927 179.608 46.6521C179.565 46.8043 179.543 47.0434 179.543 47.3695C179.543 47.6739 179.565 47.9058 179.608 48.0652C179.658 48.2173 179.741 48.326 179.856 48.3913C179.971 48.4492 180.148 48.4782 180.385 48.4782ZM180.374 42.3587V42.3043L180.73 40.8369H181.335V40.8913L180.795 42.3587H180.374Z" fill="#749BBE"/>
<path d="M184.792 43.3695H185.277L185.321 44.413H185.374C185.461 43.9782 185.605 43.6811 185.806 43.5217C186.015 43.3623 186.288 43.2826 186.626 43.2826V43.8913C186.144 43.8913 185.813 44.0688 185.633 44.4239C185.454 44.7717 185.364 45.3369 185.364 46.1195V48.913H184.792V43.3695Z" fill="#749BBE"/>
<path d="M188.96 41.6304V40.8369H189.565V41.6304H188.96ZM188.982 48.913V43.3695H189.554V48.913H188.982Z" fill="#749BBE"/>
<path d="M193.353 49C193.037 49 192.785 48.9565 192.598 48.8695C192.418 48.7753 192.281 48.6123 192.188 48.3804C192.101 48.1485 192.058 47.8188 192.058 47.3913C192.058 46.9782 192.094 46.6594 192.166 46.4347C192.245 46.2029 192.371 46.0398 192.544 45.9456C192.717 45.8442 192.965 45.7934 193.288 45.7934C193.519 45.7934 193.932 45.8116 194.529 45.8478V45.3913C194.529 44.8985 194.501 44.5434 194.443 44.326C194.393 44.1087 194.296 43.9673 194.152 43.9021C194.008 43.8297 193.767 43.7934 193.429 43.7934C193.256 43.7934 193.058 43.8079 192.835 43.8369C192.619 43.8587 192.436 43.884 192.285 43.913V43.413C192.673 43.326 193.105 43.2826 193.58 43.2826C193.997 43.2826 194.31 43.3405 194.519 43.4565C194.734 43.5724 194.886 43.7789 194.972 44.076C195.058 44.3659 195.101 44.7934 195.101 45.3587V48.913H194.605L194.562 48.1304H194.508C194.436 48.471 194.296 48.7029 194.087 48.826C193.886 48.942 193.641 49 193.353 49ZM193.461 48.4782C193.713 48.4782 193.914 48.442 194.065 48.3695C194.224 48.2971 194.335 48.1413 194.4 47.9021C194.486 47.576 194.529 47.1666 194.529 46.6739V46.25H193.407C193.184 46.25 193.019 46.2789 192.911 46.3369C192.803 46.3876 192.727 46.4927 192.684 46.6521C192.641 46.8043 192.619 47.0434 192.619 47.3695C192.619 47.6739 192.641 47.9058 192.684 48.0652C192.735 48.2173 192.817 48.326 192.932 48.3913C193.047 48.4492 193.224 48.4782 193.461 48.4782Z" fill="#749BBE"/>
<path d="M198.925 49C198.724 49 198.508 48.9855 198.278 48.9565C198.048 48.9347 197.861 48.9058 197.717 48.8695V48.3695C197.839 48.4058 198.015 48.4347 198.245 48.4565C198.476 48.4782 198.699 48.4891 198.915 48.4891C199.26 48.4891 199.494 48.4021 199.616 48.2282C199.745 48.0471 199.81 47.7826 199.81 47.4347C199.81 47.1376 199.796 46.9239 199.767 46.7934C199.738 46.6558 199.691 46.5652 199.627 46.5217C199.562 46.4782 199.454 46.4456 199.303 46.4239L198.375 46.2717C198.087 46.221 197.886 46.0942 197.771 45.8913C197.663 45.6811 197.609 45.3442 197.609 44.8804C197.609 44.2717 197.731 43.855 197.976 43.6304C198.22 43.3985 198.591 43.2826 199.087 43.2826C199.281 43.2826 199.479 43.2971 199.681 43.326C199.889 43.3478 200.055 43.3804 200.177 43.4239V43.9239C200.062 43.8876 199.897 43.8587 199.681 43.8369C199.472 43.8079 199.263 43.7934 199.055 43.7934C198.767 43.7934 198.548 43.8659 198.397 44.0108C198.253 44.1558 198.181 44.4239 198.181 44.8152C198.181 45.0833 198.195 45.2789 198.224 45.4021C198.253 45.5253 198.299 45.6123 198.364 45.663C198.429 45.7137 198.53 45.75 198.666 45.7717L199.562 45.913C199.771 45.9492 199.929 46.0108 200.037 46.0978C200.152 46.1847 200.235 46.3297 200.285 46.5326C200.343 46.7355 200.371 47.0289 200.371 47.413C200.371 47.9855 200.256 48.3949 200.026 48.6413C199.803 48.8804 199.436 49 198.925 49Z" fill="#749BBE"/>
</svg>
